1620
-0.103337
1.087319
-0.528388
-0.40052
1.030137
-0.320695
-0.286914
1.192431
-0.322459
0.370442
1.092363
-0.40365
-0.103337
1.087319
-0.528388
0.195295
1.177043
-0.35092
-0.103337
1.087319
-0.528388
-0.286914
1.192431
-0.322459
0.195295
1.177043
-0.35092
0.370442
1.092363
-0.40365
0.195295
1.177043
-0.35092
0.515752
1.122191
0.042122
0.135921
1.095699
0.516084
0.431219
1.044029
0.300992
0.195501
1.172578
0.347539
-0.260628
1.189602
0.336829
-0.294646
1.087827
0.474179
0.135921
1.095699
0.516084
0.195501
1.172578
0.347539
0.431219
1.044029
0.300992
0.515752
1.122191
0.042122
-0.260628
1.189602
0.336829
-0.549637
1.126455
0.051197
-0.294646
1.087827
0.474179
-0.260628
1.189602
0.336829
0.135921
1.095699
0.516084
0.195501
1.172578
0.347539
-0.496961
0.265287
-0.342165
-0.724965
0.128758
-0.169961
-0.604611
0.265907
-0.030145
-0.699074
0.542232
-0.103587
-0.496961
0.265287
-0.342165
-0.604611
0.265907
-0.030145
-0.40052
1.030137
-0.320695
-0.699074
0.542232
-0.103587
-0.538837
0.902563
-0.011076
-0.357769
0.127457
-0.620352
-0.420631
0.019019
-0.374704
-0.724965
0.128758
-0.169961
-0.478119
0.549874
-0.495308
-0.496961
0.265287
-0.342165
-0.699074
0.542232
-0.103587
-0.113738
0.272804
-0.613945
-0.357769
0.127457
-0.620352
-0.496961
0.265287
-0.342165
-0.157955
0.564878
-0.684467
-0.113738
0.272804
-0.613945
-0.478119
0.549874
-0.495308
-0.207563
0.905546
-0.49169
-0.157955
0.564878
-0.684467
-0.478119
0.549874
-0.495308
-0.103337
1.087319
-0.528388
-0.207563
0.905546
-0.49169
-0.40052
1.030137
-0.320695
0.11101
0.919698
-0.526084
-0.157955
0.564878
-0.684467
-0.207563
0.905546
-0.49169
0.436634
0.118477
-0.599217
0.0441
0.114325
-0.728739
-0.113738
0.272804
-0.613945
0.236641
0.528168
-0.652057
0.353101
0.27036
-0.490469
-0.113738
0.272804
-0.613945
0.236641
0.528168
-0.652057
0.11101
0.919698
-0.526084
0.50099
0.528764
-0.480776
0.624017
0.049147
-0.128266
0.301695
0.00969
0.40082
0.322591
0.01982
-0.422158
0.718332
0.154682
-0.151733
0.624017
0.049147
-0.128266
0.436634
0.118477
-0.599217
0.556181
0.267454
-0.229071
0.718332
0.154682
-0.151733
0.353101
0.27036
-0.490469
0.694454
0.561694
-0.147126
0.556181
0.267454
-0.229071
0.50099
0.528764
-0.480776
0.370954
0.927142
-0.379424
0.531804
0.907577
-0.111236
0.694454
0.561694
-0.147126
0.370442
1.092363
-0.40365
0.531804
0.907577
-0.111236
0.370954
0.927142
-0.379424
0.591459
0.265302
0.140956
0.718332
0.154682
-0.151733
0.556181
0.267454
-0.229071
0.591459
0.265302
0.140956
0.556181
0.267454
-0.229071
0.694454
0.561694
-0.147126
0.602416
0.114451
0.414479
0.301695
0.00969
0.40082
0.624017
0.049147
-0.128266
0.591459
0.265302
0.140956
0.602416
0.114451
0.414479
0.718332
0.154682
-0.151733
0.694454
0.561694
-0.147126
0.531804
0.907577
-0.111236
0.431219
1.044029
0.300992
0.491465
0.548501
0.4951
0.342348
0.266492
0.496698
0.65496
0.551538
0.244755
0.65496
0.551538
0.244755
0.431219
1.044029
0.300992
0.491465
0.548501
0.4951
0.1627
0.122538
0.691615
0.301695
0.00969
0.40082
0.602416
0.114451
0.414479
0.342348
0.266492
0.496698
0.1627
0.122538
0.691615
0.602416
0.114451
0.414479
0.11416
0.548137
0.700391
0.342348
0.266492
0.496698
0.491465
0.548501
0.4951
0.431219
1.044029
0.300992
0.0951
0.926939
0.52791
0.11416
0.548137
0.700391
0.135921
1.095699
0.516084
0.0951
0.926939
0.52791
0.431219
1.044029
0.300992
-0.16889
0.027781
0.530757
-0.417183
0.01075
0.153406
0.301695
0.00969
0.40082
0.1627
0.122538
0.691615
-0.16889
0.027781
0.530757
0.301695
0.00969
0.40082
-0.338901
0.13448
0.632102
-0.16889
0.027781
0.530757
0.1627
0.122538
0.691615
-0.352055
0.269362
0.489615
-0.338901
0.13448
0.632102
-0.007888
0.274806
0.602272
-0.25757
0.528032
0.645609
-0.352055
0.269362
0.489615
-0.007888
0.274806
0.602272
0.11416
0.548137
0.700391
0.0951
0.926939
0.52791
-0.211777
0.942247
0.481795
-0.294646
1.087827
0.474179
-0.211777
0.942247
0.481795
0.0951
0.926939
0.52791
-0.629563
0.100312
0.359666
-0.417183
0.01075
0.153406
-0.16889
0.027781
0.530757
-0.621034
0.548228
0.351955
-0.352055
0.269362
0.489615
-0.25757
0.528032
0.645609
-0.445823
0.934505
0.306944
-0.621034
0.548228
0.351955
-0.211777
0.942247
0.481795
-0.294646
1.087827
0.474179
-0.445823
0.934505
0.306944
-0.211777
0.942247
0.481795
-0.547777
0.277188
0.249068
-0.629563
0.100312
0.359666
-0.352055
0.269362
0.489615
-0.724965
0.128758
-0.169961
-0.417183
0.01075
0.153406
-0.629563
0.100312
0.359666
-0.724965
0.128758
-0.169961
-0.629563
0.100312
0.359666
-0.547777
0.277188
0.249068
-0.547777
0.277188
0.249068
-0.621034
0.548228
0.351955
-0.604611
0.265907
-0.030145
-0.699074
0.542232
-0.103587
-0.621034
0.548228
0.351955
-0.538837
0.902563
-0.011076
-0.549637
1.126455
0.051197
-0.538837
0.902563
-0.011076
-0.445823
0.934505
0.306944
-0.261677
2.624348
0.261366
-0.469167
2.801686
0.296032
-0.523572
2.597641
0.27272
-0.469167
2.801686
0.296032
-0.261677
2.624348
0.261366
0.320522
3.042453
0.285745
0.195501
1.172578
0.347539
0.152749
1.632998
0.295444
-0.260628
1.189602
0.336829
0.004314
2.547992
0.29026
-0.305414
1.638042
0.27665
0.152749
1.632998
0.295444
0.152749
1.632998
0.295444
0.308445
2.228153
0.279571
0.004314
2.547992
0.29026
-0.261677
2.624348
0.261366
0.004314
2.547992
0.29026
0.320522
3.042453
0.285745
0.320522
3.042453
0.285745
0.004314
2.547992
0.29026
0.308445
2.228153
0.279571
0.152749
1.632998
0.295444
-0.305414
1.638042
0.27665
-0.260628
1.189602
0.336829
-0.170302
2.603269
-0.296333
-0.50292
2.592301
-0.28011
-0.460421
2.813273
-0.28777
-0.460421
2.813273
-0.28777
0.319338
3.027426
-0.284913
-0.170302
2.603269
-0.296333
0.195295
1.177043
-0.35092
-0.286914
1.192431
-0.322459
0.14707
1.620395
-0.308853
-0.032436
2.292838
-0.298053
0.14707
1.620395
-0.308853
-0.286914
1.192431
-0.322459
0.14707
1.620395
-0.308853
-0.032436
2.292838
-0.298053
0.296447
2.243278
-0.300069
0.319338
3.027426
-0.284913
-0.032436
2.292838
-0.298053
-0.170302
2.603269
-0.296333
0.319338
3.027426
-0.284913
0.296447
2.243278
-0.300069
-0.032436
2.292838
-0.298053
0.004314
2.547992
0.29026
-0.261677
2.624348
0.261366
-0.158348
2.540477
0.136638
-0.261677
2.624348
0.261366
-0.523572
2.597641
0.27272
-0.507538
2.475263
0.030623
-0.523572
2.597641
0.27272
-0.469167
2.801686
0.296032
-0.642442
2.903915
0.142349
-0.12235
3.178227
0.12353
0.320522
3.042453
0.285745
0.526027
3.36074
0.124733
0.488309
2.678288
0.100088
0.526027
3.36074
0.124733
0.320522
3.042453
0.285745
0.320522
3.042453
0.285745
0.308445
2.228153
0.279571
0.488309
2.678288
0.100088
0.308445
2.228153
0.279571
0.343263
1.803775
0.143539
0.488309
2.678288
0.100088
0.308445
2.228153
0.279571
0.152749
1.632998
0.295444
0.343263
1.803775
0.143539
0.195501
1.172578
0.347539
0.515752
1.122191
0.042122
0.152749
1.632998
0.295444
-0.260628
1.189602
0.336829
-0.599675
1.504572
0.121228
-0.549637
1.126455
0.051197
-0.260628
1.189602
0.336829
-0.305414
1.638042
0.27665
-0.599675
1.504572
0.121228
-0.599675
1.504572
0.121228
-0.305414
1.638042
0.27665
-0.23864
2.209178
0.144581
-0.23864
2.209178
0.144581
0.004314
2.547992
0.29026
-0.158348
2.540477
0.136638
-0.305414
1.638042
0.27665
0.004314
2.547992
0.29026
-0.23864
2.209178
0.144581
0.488309
2.678288
0.100088
0.523733
3.376649
-0.101132
0.526027
3.36074
0.124733
0.383909
1.806445
-0.01928
0.343263
1.803775
0.143539
0.515752
1.122191
0.042122
-0.549637
1.126455
0.051197
-0.599675
1.504572
0.121228
-0.640018
1.371083
-0.065202
-0.599675
1.504572
0.121228
-0.23864
2.209178
0.144581
-0.628993
1.645681
-0.008217
-0.23864
2.209178
0.144581
-0.158348
2.540477
0.136638
-0.17236
2.391815
-0.171895
-0.170302
2.603269
-0.296333
-0.158348
2.540477
0.136638
-0.261677
2.624348
0.261366
-0.642442
2.903915
0.142349
-0.12235
3.178227
0.12353
-0.632658
2.921356
-0.111967
-0.12235
3.178227
0.12353
0.526027
3.36074
0.124733
0.523733
3.376649
-0.101132
0.488309
2.678288
0.100088
0.460263
2.554357
-0.156626
0.523733
3.376649
-0.101132
0.383909
1.806445
-0.01928
0.432674
1.367521
-0.134911
0.317904
1.794413
-0.194373
0.515752
1.122191
0.042122
0.432674
1.367521
-0.134911
0.383909
1.806445
-0.01928
-0.640018
1.371083
-0.065202
-0.628993
1.645681
-0.008217
-0.522832
1.661283
-0.159173
-0.507538
2.475263
0.030623
-0.170302
2.603269
-0.296333
-0.261677
2.624348
0.261366
-0.549637
1.126455
0.051197
-0.640018
1.371083
-0.065202
-0.40052
1.030137
-0.320695
-0.642442
2.903915
0.142349
-0.632658
2.921356
-0.111967
-0.639594
2.583488
-0.045068
-0.080876
3.186277
-0.139889
-0.12235
3.178227
0.12353
0.523733
3.376649
-0.101132
-0.170302
2.603269
-0.296333
-0.507538
2.475263
0.030623
-0.50292
2.592301
-0.28011
-0.460421
2.813273
-0.28777
-0.50292
2.592301
-0.28011
-0.632658
2.921356
-0.111967
-0.460421
2.813273
-0.28777
-0.632658
2.921356
-0.111967
-0.080876
3.186277
-0.139889
0.319338
3.027426
-0.284913
-0.460421
2.813273
-0.28777
-0.080876
3.186277
-0.139889
0.14707
1.620395
-0.308853
0.296447
2.243278
-0.300069
0.317904
1.794413
-0.194373
0.319338
3.027426
-0.284913
0.523733
3.376649
-0.101132
0.460263
2.554357
-0.156626
0.317904
1.794413
-0.194373
0.460263
2.554357
-0.156626
0.383909
1.806445
-0.01928
0.432674
1.367521
-0.134911
0.515752
1.122191
0.042122
0.195295
1.177043
-0.35092
-0.286914
1.192431
-0.322459
-0.40052
1.030137
-0.320695
-0.640018
1.371083
-0.065202
-0.032436
2.292838
-0.298053
-0.286914
1.192431
-0.322459
-0.522832
1.661283
-0.159173
-0.17236
2.391815
-0.171895
-0.170302
2.603269
-0.296333
-0.032436
2.292838
-0.298053
-0.628993
1.645681
-0.008217
-0.17236
2.391815
-0.171895
-0.032436
2.292838
-0.298053
-0.522832
1.661283
-0.159173
-0.628993
1.645681
-0.008217
-0.032436
2.292838
-0.298053
-0.420631
0.019019
-0.374704
-0.417183
0.01075
0.153406
-0.724965
0.128758
-0.169961
-0.357769
0.127457
-0.620352
-0.724965
0.128758
-0.169961
-0.496961
0.265287
-0.342165
-0.478119
0.549874
-0.495308
-0.699074
0.542232
-0.103587
-0.40052
1.030137
-0.320695
-0.113738
0.272804
-0.613945
-0.496961
0.265287
-0.342165
-0.478119
0.549874
-0.495308
-0.207563
0.905546
-0.49169
-0.478119
0.549874
-0.495308
-0.40052
1.030137
-0.320695
0.0441
0.114325
-0.728739
-0.420631
0.019019
-0.374704
-0.357769
0.127457
-0.620352
0.0441
0.114325
-0.728739
-0.357769
0.127457
-0.620352
-0.113738
0.272804
-0.613945
0.11101
0.919698
-0.526084
-0.207563
0.905546
-0.49169
-0.103337
1.087319
-0.528388
0.322591
0.01982
-0.422158
-0.420631
0.019019
-0.374704
0.0441
0.114325
-0.728739
0.236641
0.528168
-0.652057
-0.113738
0.272804
-0.613945
-0.157955
0.564878
-0.684467
0.236641
0.528168
-0.652057
-0.157955
0.564878
-0.684467
0.11101
0.919698
-0.526084
0.370442
1.092363
-0.40365
0.11101
0.919698
-0.526084
-0.103337
1.087319
-0.528388
0.301695
0.00969
0.40082
-0.417183
0.01075
0.153406
-0.420631
0.019019
-0.374704
0.436634
0.118477
-0.599217
0.322591
0.01982
-0.422158
0.0441
0.114325
-0.728739
0.50099
0.528764
-0.480776
0.353101
0.27036
-0.490469
0.236641
0.528168
-0.652057
0.370954
0.927142
-0.379424
0.11101
0.919698
-0.526084
0.370442
1.092363
-0.40365
0.301695
0.00969
0.40082
-0.420631
0.019019
-0.374704
0.322591
0.01982
-0.422158
0.624017
0.049147
-0.128266
0.322591
0.01982
-0.422158
0.436634
0.118477
-0.599217
0.718332
0.154682
-0.151733
0.436634
0.118477
-0.599217
0.353101
0.27036
-0.490469
0.556181
0.267454
-0.229071
0.353101
0.27036
-0.490469
0.50099
0.528764
-0.480776
0.515752
1.122191
0.042122
0.531804
0.907577
-0.111236
0.370442
1.092363
-0.40365
0.602416
0.114451
0.414479
0.624017
0.049147
-0.128266
0.718332
0.154682
-0.151733
0.65496
0.551538
0.244755
0.591459
0.265302
0.140956
0.694454
0.561694
-0.147126
0.431219
1.044029
0.300992
0.531804
0.907577
-0.111236
0.515752
1.122191
0.042122
0.342348
0.266492
0.496698
0.602416
0.114451
0.414479
0.591459
0.265302
0.140956
-0.007888
0.274806
0.602272
0.1627
0.122538
0.691615
0.342348
0.266492
0.496698
-0.007888
0.274806
0.602272
0.342348
0.266492
0.496698
0.11416
0.548137
0.700391
-0.338901
0.13448
0.632102
0.1627
0.122538
0.691615
-0.007888
0.274806
0.602272
-0.25757
0.528032
0.645609
-0.007888
0.274806
0.602272
0.11416
0.548137
0.700391
-0.294646
1.087827
0.474179
0.0951
0.926939
0.52791
0.135921
1.095699
0.516084
-0.629563
0.100312
0.359666
-0.16889
0.027781
0.530757
-0.338901
0.13448
0.632102
-0.629563
0.100312
0.359666
-0.338901
0.13448
0.632102
-0.352055
0.269362
0.489615
-0.547777
0.277188
0.249068
-0.352055
0.269362
0.489615
-0.621034
0.548228
0.351955
-0.549637
1.126455
0.051197
-0.445823
0.934505
0.306944
-0.294646
1.087827
0.474179
-0.523572
2.597641
0.27272
-0.639594
2.583488
-0.045068
-0.507538
2.475263
0.030623
-0.523572
2.597641
0.27272
-0.642442
2.903915
0.142349
-0.639594
2.583488
-0.045068
-0.642442
2.903915
0.142349
-0.469167
2.801686
0.296032
-0.12235
3.178227
0.12353
0.320522
3.042453
0.285745
-0.12235
3.178227
0.12353
-0.469167
2.801686
0.296032
0.152749
1.632998
0.295444
0.515752
1.122191
0.042122
0.343263
1.803775
0.143539
0.343263
1.803775
0.143539
0.383909
1.806445
-0.01928
0.488309
2.678288
0.100088
-0.599675
1.504572
0.121228
-0.628993
1.645681
-0.008217
-0.640018
1.371083
-0.065202
-0.23864
2.209178
0.144581
-0.17236
2.391815
-0.171895
-0.628993
1.645681
-0.008217
-0.12235
3.178227
0.12353
-0.080876
3.186277
-0.139889
-0.632658
2.921356
-0.111967
0.488309
2.678288
0.100088
0.383909
1.806445
-0.01928
0.460263
2.554357
-0.156626
-0.17236
2.391815
-0.171895
-0.158348
2.540477
0.136638
-0.170302
2.603269
-0.296333
-0.507538
2.475263
0.030623
-0.639594
2.583488
-0.045068
-0.50292
2.592301
-0.28011
-0.639594
2.583488
-0.045068
-0.632658
2.921356
-0.111967
-0.50292
2.592301
-0.28011
-0.080876
3.186277
-0.139889
0.523733
3.376649
-0.101132
0.319338
3.027426
-0.284913
0.460263
2.554357
-0.156626
0.296447
2.243278
-0.300069
0.319338
3.027426
-0.284913
0.296447
2.243278
-0.300069
0.460263
2.554357
-0.156626
0.317904
1.794413
-0.194373
0.14707
1.620395
-0.308853
0.317904
1.794413
-0.194373
0.432674
1.367521
-0.134911
0.432674
1.367521
-0.134911
0.195295
1.177043
-0.35092
0.14707
1.620395
-0.308853
-0.286914
1.192431
-0.322459
-0.640018
1.371083
-0.065202
-0.522832
1.661283
-0.159173
-0.538837
0.902563
-0.011076
-0.549637
1.126455
0.051197
-0.40052
1.030137
-0.320695
0.436634
0.118477
-0.599217
-0.113738
0.272804
-0.613945
0.353101
0.27036
-0.490469
-0.724965
0.128758
-0.169961
-0.547777
0.277188
0.249068
-0.604611
0.265907
-0.030145
-0.621034
0.548228
0.351955
-0.445823
0.934505
0.306944
-0.538837
0.902563
-0.011076
0.11101
0.919698
-0.526084
0.370954
0.927142
-0.379424
0.50099
0.528764
-0.480776
0.50099
0.528764
-0.480776
0.370954
0.927142
-0.379424
0.694454
0.561694
-0.147126
0.65496
0.551538
0.244755
0.694454
0.561694
-0.147126
0.431219
1.044029
0.300992
0.342348
0.266492
0.496698
0.591459
0.265302
0.140956
0.65496
0.551538
0.244755
0.491465
0.548501
0.4951
0.431219
1.044029
0.300992
0.11416
0.548137
0.700391
-0.25757
0.528032
0.645609
0.11416
0.548137
0.700391
-0.211777
0.942247
0.481795
-0.621034
0.548228
0.351955
-0.25757
0.528032
0.645609
-0.211777
0.942247
0.481795
-0.621034
0.548228
0.351955
-0.699074
0.542232
-0.103587
-0.604611
0.265907
-0.030145
1620
-0.576053
0.395462
-0.715382
-0.576053
0.395462
-0.715382
-0.576053
0.395462
-0.715382
0.16321
0.742273
-0.649917
0.16321
0.742273
-0.649917
0.16321
0.742273
-0.649917
0.001679
0.891285
-0.453441
0.001679
0.891285
-0.453441
0.001679
0.891285
-0.453441
0.382026
0.905422
-0.185114
0.382026
0.905422
-0.185114
0.382026
0.905422
-0.185114
0.488771
0.71551
0.499148
0.488771
0.71551
0.499148
0.488771
0.71551
0.499148
-0.071482
0.809793
0.582345
-0.071482
0.809793
0.582345
-0.071482
0.809793
0.582345
0.498702
0.771181
0.395696
0.498702
0.771181
0.395696
0.498702
0.771181
0.395696
-0.555923
0.727784
0.401597
-0.555923
0.727784
0.401597
-0.555923
0.727784
0.401597
0.023922
0.906341
0.42187
0.023922
0.906341
0.42187
0.023922
0.906341
0.42187
-0.615698
0.758386
-0.213931
-0.615698
0.758386
-0.213931
-0.615698
0.758386
-0.213931
-0.874971
-0.379145
-0.301122
-0.874971
-0.379145
-0.301122
-0.874971
-0.379145
-0.301122
-0.872808
0.44153
-0.207987
-0.872808
0.44153
-0.207987
-0.872808
0.44153
-0.207987
-0.555237
-0.699015
-0.450656
-0.555237
-0.699015
-0.450656
-0.555237
-0.699015
-0.450656
-0.85095
-0.204096
-0.483971
-0.85095
-0.204096
-0.483971
-0.85095
-0.204096
-0.483971
-0.412429
0.717208
-0.561707
-0.412429
0.717208
-0.561707
-0.412429
0.717208
-0.561707
-0.479674
-0.273894
-0.833604
-0.479674
-0.273894
-0.833604
-0.479674
-0.273894
-0.833604
-0.484273
0.376414
-0.789805
-0.484273
0.376414
-0.789805
-0.484273
0.376414
-0.789805
-0.586445
0.176666
-0.790488
-0.586445
0.176666
-0.790488
-0.586445
0.176666
-0.790488
-0.115268
0.476444
-0.871616
-0.115268
0.476444
-0.871616
-0.115268
0.476444
-0.871616
0.215646
0.704521
-0.676126
0.215646
0.704521
-0.676126
0.215646
0.704521
-0.676126
0.227282
-0.4414
-0.868049
0.227282
-0.4414
-0.868049
0.227282
-0.4414
-0.868049
0.496263
0.406121
-0.767326
0.496263
0.406121
-0.767326
0.496263
0.406121
-0.767326
0.106047
-0.994315
-0.009546
0.106047
-0.994315
-0.009546
0.106047
-0.994315
-0.009546
0.655033
-0.665118
-0.35854
0.655033
-0.665118
-0.35854
0.655033
-0.665118
-0.35854
0.642863
0.586304
-0.492925
0.642863
0.586304
-0.492925
0.642863
0.586304
-0.492925
0.844705
-0.267911
-0.463354
0.844705
-0.267911
-0.463354
0.844705
-0.267911
-0.463354
0.791994
0.418553
-0.444475
0.791994
0.418553
-0.444475
0.791994
0.418553
-0.444475
0.852921
-0.073148
-0.516889
0.852921
-0.073148
-0.516889
0.852921
-0.073148
-0.516889
0.58657
0.808277
-0.05122
0.58657
0.808277
-0.05122
0.58657
0.808277
-0.05122
0.910772
-0.403165
-0.089175
0.910772
-0.403165
-0.089175
0.910772
-0.403165
-0.089175
0.321268
-0.938606
0.125722
0.321268
-0.938606
0.125722
0.321268
-0.938606
0.125722
0.871177
0.443845
0.209885
0.871177
0.443845
0.209885
0.871177
0.443845
0.209885
0.905111
0.417033
0.082807
0.905111
0.417033
0.082807
0.905111
0.417033
0.082807
0.768331
-0.403452
0.496885
0.768331
-0.403452
0.496885
0.768331
-0.403452
0.496885
0.796481
0.30203
0.523828
0.796481
0.30203
0.523828
0.796481
0.30203
0.523828
0.273644
-0.84533
0.458842
0.273644
-0.84533
0.458842
0.273644
-0.84533
0.458842
0.488641
0.423246
0.76295
0.488641
0.423246
0.76295
0.488641
0.423246
0.76295
0.464077
-0.240557
0.852505
0.464077
-0.240557
0.852505
0.464077
-0.240557
0.852505
0.415994
0.394093
0.819537
0.415994
0.394093
0.819537
0.415994
0.394093
0.819537
0.57725
-0.082705
0.812369
0.57725
-0.082705
0.812369
0.57725
-0.082705
0.812369
-0.021942
-0.997988
0.05948
-0.021942
-0.997988
0.05948
-0.021942
-0.997988
0.05948
0.072634
-0.917602
0.390809
0.072634
-0.917602
0.390809
0.072634
-0.917602
0.390809
-0.094328
-0.760507
0.642442
-0.094328
-0.760507
0.642442
-0.094328
-0.760507
0.642442
-0.233499
0.695295
0.679738
-0.233499
0.695295
0.679738
-0.233499
0.695295
0.679738
-0.276263
-0.420316
0.864299
-0.276263
-0.420316
0.864299
-0.276263
-0.420316
0.864299
-0.115876
0.406769
0.906152
-0.115876
0.406769
0.906152
-0.115876
0.406769
0.906152
-0.150164
-0.033787
0.988083
-0.150164
-0.033787
0.988083
-0.150164
-0.033787
0.988083
-0.220634
-0.956994
0.188367
-0.220634
-0.956994
0.188367
-0.220634
-0.956994
0.188367
-0.61967
-0.226784
0.751384
-0.61967
-0.226784
0.751384
-0.61967
-0.226784
0.751384
-0.569036
0.345082
0.746402
-0.569036
0.345082
0.746402
-0.569036
0.345082
0.746402
-0.568027
-0.282908
0.772858
-0.568027
-0.282908
0.772858
-0.568027
-0.282908
0.772858
-0.608774
0.603494
0.514965
-0.608774
0.603494
0.514965
-0.608774
0.603494
0.514965
-0.373981
-0.92727
0.017563
-0.373981
-0.92727
0.017563
-0.373981
-0.92727
0.017563
-0.845451
0.503051
0.179309
-0.845451
0.503051
0.179309
-0.845451
0.503051
0.179309
-0.923701
-0.326033
0.201195
-0.923701
-0.326033
0.201195
-0.923701
-0.326033
0.201195
-0.916998
0.368697
0.152241
-0.916998
0.368697
0.152241
-0.916998
0.368697
0.152241
-0.948592
-0.126456
0.290143
-0.948592
-0.126456
0.290143
-0.948592
-0.126456
0.290143
0.055987
-0.128054
0.990186
0.055987
-0.128054
0.990186
0.055987
-0.128054
0.990186
0.052989
-0.131506
0.989898
0.052989
-0.131506
0.989898
0.052989
-0.131506
0.989898
-0.019203
0.110649
0.993674
-0.019203
0.110649
0.993674
-0.019203
0.110649
0.993674
-0.040996
-0.00099
0.999159
-0.040996
-0.00099
0.999159
-0.040996
-0.00099
0.999159
0.049493
0.013687
0.998681
0.049493
0.013687
0.998681
0.049493
0.013687
0.998681
-0.089013
0.065998
0.993842
-0.089013
0.065998
0.993842
-0.089013
0.065998
0.993842
0.026744
-0.007976
0.99961
0.026744
-0.007976
0.99961
0.026744
-0.007976
0.99961
-0.039224
0.129052
0.990862
-0.039224
0.129052
0.990862
-0.039224
0.129052
0.990862
-0.047865
-0.025407
-0.998531
-0.047865
-0.025407
-0.998531
-0.047865
-0.025407
-0.998531
-0.00546
0.033213
-0.999433
-0.00546
0.033213
-0.999433
-0.00546
0.033213
-0.999433
-0.055881
0.088286
-0.994526
-0.055881
0.088286
-0.994526
-0.055881
0.088286
-0.994526
0.012277
0.019335
-0.999738
0.012277
0.019335
-0.999738
0.012277
0.019335
-0.999738
-0.003865
0.015028
-0.99988
-0.003865
0.015028
-0.99988
-0.003865
0.015028
-0.99988
0.013378
0.011479
-0.999845
0.013378
0.011479
-0.999845
0.013378
0.011479
-0.999845
-0.003203
0.019418
-0.999806
-0.003203
0.019418
-0.999806
-0.003203
0.019418
-0.999806
-0.293378
-0.888005
0.354085
-0.293378
-0.888005
0.354085
-0.293378
-0.888005
0.354085
0.109848
-0.884109
0.454185
0.109848
-0.884109
0.454185
0.109848
-0.884109
0.454185
-0.634106
0.081219
0.768969
-0.634106
0.081219
0.768969
-0.634106
0.081219
0.768969
-0.148199
0.520938
0.840631
-0.148199
0.520938
0.840631
-0.148199
0.520938
0.840631
0.674881
-0.063848
0.735159
0.674881
-0.063848
0.735159
0.674881
-0.063848
0.735159
0.726022
-0.01598
0.687486
0.726022
-0.01598
0.687486
0.726022
-0.01598
0.687486
0.825929
-0.10951
0.553035
0.825929
-0.10951
0.553035
0.825929
-0.10951
0.553035
0.701017
-0.164886
0.693821
0.701017
-0.164886
0.693821
0.701017
-0.164886
0.693821
0.694722
0.144239
0.704668
0.694722
0.144239
0.704668
0.694722
0.144239
0.704668
-0.660888
-0.22033
0.717413
-0.660888
-0.22033
0.717413
-0.660888
-0.22033
0.717413
-0.489809
0.067725
0.869196
-0.489809
0.067725
0.869196
-0.489809
0.067725
0.869196
-0.538243
0.249108
0.805133
-0.538243
0.249108
0.805133
-0.538243
0.249108
0.805133
-0.679604
0.181743
0.710709
-0.679604
0.181743
0.710709
-0.679604
0.181743
0.710709
-0.719693
0.235198
0.653241
-0.719693
0.235198
0.653241
-0.719693
0.235198
0.653241
0.998406
-0.054676
-0.013994
0.998406
-0.054676
-0.013994
0.998406
-0.054676
-0.013994
0.948948
0.204403
0.240245
0.948948
0.204403
0.240245
0.948948
0.204403
0.240245
-0.925214
-0.183909
0.331897
-0.925214
-0.183909
0.331897
-0.925214
-0.183909
0.331897
-0.742983
0.362042
0.56294
-0.742983
0.362042
0.56294
-0.742983
0.362042
0.56294
-0.969962
0.233434
-0.068427
-0.969962
0.233434
-0.068427
-0.969962
0.233434
-0.068427
-0.688094
-0.720566
-0.085506
-0.688094
-0.720566
-0.085506
-0.688094
-0.720566
-0.085506
-0.464881
0.88434
0.042766
-0.464881
0.88434
0.042766
-0.464881
0.88434
0.042766
-0.270411
0.96017
0.070374
-0.270411
0.96017
0.070374
-0.270411
0.96017
0.070374
0.99467
-0.07178
-0.074015
0.99467
-0.07178
-0.074015
0.99467
-0.07178
-0.074015
0.913121
0.195673
-0.357662
0.913121
0.195673
-0.357662
0.913121
0.195673
-0.357662
0.960951
0.165239
-0.221969
0.960951
0.165239
-0.221969
0.960951
0.165239
-0.221969
-0.816053
0.148672
-0.558529
-0.816053
0.148672
-0.558529
-0.816053
0.148672
-0.558529
0.440999
-0.891233
0.10594
0.440999
-0.891233
0.10594
0.440999
-0.891233
0.10594
-0.869514
-0.433702
-0.236321
-0.869514
-0.433702
-0.236321
-0.869514
-0.433702
-0.236321
-0.999209
0.013078
-0.037541
-0.999209
0.013078
-0.037541
-0.999209
0.013078
-0.037541
-0.299236
0.95401
-0.017959
-0.299236
0.95401
-0.017959
-0.299236
0.95401
-0.017959
0.013675
-0.935799
-0.352268
0.013675
-0.935799
-0.352268
0.013675
-0.935799
-0.352268
-0.677318
0.105029
-0.728155
-0.677318
0.105029
-0.728155
-0.677318
0.105029
-0.728155
-0.334039
0.621008
-0.70906
-0.334039
0.621008
-0.70906
-0.334039
0.621008
-0.70906
-0.127178
0.474689
-0.870917
-0.127178
0.474689
-0.870917
-0.127178
0.474689
-0.870917
0.648465
-0.144972
-0.747312
0.648465
-0.144972
-0.747312
0.648465
-0.144972
-0.747312
0.670158
-0.001637
-0.742217
0.670158
-0.001637
-0.742217
0.670158
-0.001637
-0.742217
0.927639
-0.156939
-0.338905
0.927639
-0.156939
-0.338905
0.927639
-0.156939
-0.338905
0.744004
-0.20659
-0.635436
0.744004
-0.20659
-0.635436
0.744004
-0.20659
-0.635436
-0.453353
0.308257
-0.83633
-0.453353
0.308257
-0.83633
-0.453353
0.308257
-0.83633
-0.403178
0.113379
-0.908071
-0.403178
0.113379
-0.908071
-0.403178
0.113379
-0.908071
-0.750121
-0.329963
-0.5731
-0.750121
-0.329963
-0.5731
-0.750121
-0.329963
-0.5731
-0.583468
0.183535
-0.791126
-0.583468
0.183535
-0.791126
-0.583468
0.183535
-0.791126
-0.743032
0.472795
-0.473675
-0.743032
0.472795
-0.473675
-0.743032
0.472795
-0.473675
-0.346567
-0.937943
-0.012424
-0.346567
-0.937943
-0.012424
-0.346567
-0.937943
-0.012424
-0.693963
0.443691
-0.567057
-0.693963
0.443691
-0.567057
-0.693963
0.443691
-0.567057
-0.832537
0.303105
-0.463691
-0.832537
0.303105
-0.463691
-0.832537
0.303105
-0.463691
-0.531666
-0.37378
-0.760013
-0.531666
-0.37378
-0.760013
-0.531666
-0.37378
-0.760013
-0.472505
0.367576
-0.801016
-0.472505
0.367576
-0.801016
-0.472505
0.367576
-0.801016
-0.1452
-0.890873
-0.43042
-0.1452
-0.890873
-0.43042
-0.1452
-0.890873
-0.43042
-0.22421
0.415299
-0.881622
-0.22421
0.415299
-0.881622
-0.22421
0.415299
-0.881622
-0.100047
-0.141471
-0.984874
-0.100047
-0.141471
-0.984874
-0.100047
-0.141471
-0.984874
-0.016875
-0.959705
-0.280502
-0.016875
-0.959705
-0.280502
-0.016875
-0.959705
-0.280502
0.058853
-0.225874
-0.972377
0.058853
-0.225874
-0.972377
0.058853
-0.225874
-0.972377
0.108091
0.33575
-0.935729
0.108091
0.33575
-0.935729
0.108091
0.33575
-0.935729
0.240367
0.294661
-0.924877
0.240367
0.294661
-0.924877
0.240367
0.294661
-0.924877
0.003924
-0.999869
-0.015682
0.003924
-0.999869
-0.015682
0.003924
-0.999869
-0.015682
0.144482
-0.901029
-0.408988
0.144482
-0.901029
-0.408988
0.144482
-0.901029
-0.408988
0.52406
-0.269623
-0.807877
0.52406
-0.269623
-0.807877
0.52406
-0.269623
-0.807877
0.490247
-0.124961
-0.862579
0.490247
-0.124961
-0.862579
0.490247
-0.124961
-0.862579
0.000293
-0.999924
-0.012301
0.000293
-0.999924
-0.012301
0.000293
-0.999924
-0.012301
0.352336
-0.895471
-0.272013
0.352336
-0.895471
-0.272013
0.352336
-0.895471
-0.272013
0.615427
0.653738
-0.440314
0.615427
0.653738
-0.440314
0.615427
0.653738
-0.440314
0.723994
-0.393091
-0.566843
0.723994
-0.393091
-0.566843
0.723994
-0.393091
-0.566843
0.903409
0.291962
-0.314024
0.903409
0.291962
-0.314024
0.903409
0.291962
-0.314024
0.753084
-0.648989
0.108061
0.753084
-0.648989
0.108061
0.753084
-0.648989
0.108061
0.964757
-0.246968
0.090829
0.964757
-0.246968
0.090829
0.964757
-0.246968
0.090829
0.953691
-0.124372
0.273872
0.953691
-0.124372
0.273872
0.953691
-0.124372
0.273872
0.55348
0.738481
0.385105
0.55348
0.738481
0.385105
0.55348
0.738481
0.385105
0.228695
0.670386
0.70589
0.228695
0.670386
0.70589
0.228695
0.670386
0.70589
0.252032
-0.424685
0.869553
0.252032
-0.424685
0.869553
0.252032
-0.424685
0.869553
-0.097009
0.420592
0.902049
-0.097009
0.420592
0.902049
-0.097009
0.420592
0.902049
-0.124596
-0.285481
0.950251
-0.124596
-0.285481
0.950251
-0.124596
-0.285481
0.950251
-0.098132
0.093168
0.990803
-0.098132
0.093168
0.990803
-0.098132
0.093168
0.990803
-0.290802
-0.860556
0.418183
-0.290802
-0.860556
0.418183
-0.290802
-0.860556
0.418183
-0.604736
0.549761
0.576244
-0.604736
0.549761
0.576244
-0.604736
0.549761
0.576244
-0.714403
-0.408695
0.567977
-0.714403
-0.408695
0.567977
-0.714403
-0.408695
0.567977
-0.820256
0.245022
0.51686
-0.820256
0.245022
0.51686
-0.820256
0.245022
0.51686
-0.699966
-0.654967
0.284722
-0.699966
-0.654967
0.284722
-0.699966
-0.654967
0.284722
-0.915553
-0.209092
0.343574
-0.915553
-0.209092
0.343574
-0.915553
-0.209092
0.343574
-0.294374
0.608676
0.736789
-0.294374
0.608676
0.736789
-0.294374
0.608676
0.736789
-0.148001
0.521332
0.840422
-0.148001
0.521332
0.840422
-0.148001
0.521332
0.840422
0.604032
0.034389
0.796218
0.604032
0.034389
0.796218
0.604032
0.034389
0.796218
0.960184
-0.147466
0.23728
0.960184
-0.147466
0.23728
0.960184
-0.147466
0.23728
-0.976548
-0.005456
0.215228
-0.976548
-0.005456
0.215228
-0.976548
-0.005456
0.215228
-0.831279
0.538755
0.136817
-0.831279
0.538755
0.136817
-0.831279
0.538755
0.136817
-0.434136
0.899921
-0.040852
-0.434136
0.899921
-0.040852
-0.434136
0.899921
-0.040852
0.992278
-0.111338
-0.054657
0.992278
-0.111338
-0.054657
0.992278
-0.111338
-0.054657
-0.999095
0.028378
0.031699
-0.999095
0.028378
0.031699
-0.999095
0.028378
0.031699
-0.487596
-0.814621
-0.314075
-0.487596
-0.814621
-0.314075
-0.487596
-0.814621
-0.314075
-0.860223
-0.081993
-0.503283
-0.860223
-0.081993
-0.503283
-0.860223
-0.081993
-0.503283
-0.106237
0.511053
-0.852959
-0.106237
0.511053
-0.852959
-0.106237
0.511053
-0.852959
0.664053
-0.004934
-0.747669
0.664053
-0.004934
-0.747669
0.664053
-0.004934
-0.747669
0.766649
-0.112213
-0.632185
0.766649
-0.112213
-0.632185
0.766649
-0.112213
-0.632185
0.537325
0.027046
-0.842942
0.537325
0.027046
-0.842942
0.537325
0.027046
-0.842942
0.602548
0.140091
-0.785691
0.602548
0.140091
-0.785691
0.602548
0.140091
-0.785691
-0.595245
-0.019754
-0.803301
-0.595245
-0.019754
-0.803301
-0.595245
-0.019754
-0.803301
-0.920612
0.062789
-0.385398
-0.920612
0.062789
-0.385398
-0.920612
0.062789
-0.385398
0.199476
0.640617
-0.741498
0.199476
0.640617
-0.741498
0.199476
0.640617
-0.741498
-0.811356
0.566981
0.142246
-0.811356
0.566981
0.142246
-0.811356
0.566981
0.142246
-0.879798
0.424086
0.214726
-0.879798
0.424086
0.214726
-0.879798
0.424086
0.214726
0.451527
0.355581
-0.818343
0.451527
0.355581
-0.818343
0.451527
0.355581
-0.818343
0.783143
0.380716
-0.491673
0.783143
0.380716
-0.491673
0.783143
0.380716
-0.491673
0.910029
0.401769
0.102125
0.910029
0.401769
0.102125
0.910029
0.401769
0.102125
0.762601
-0.363275
0.53523
0.762601
-0.363275
0.53523
0.762601
-0.363275
0.53523
0.443131
0.373165
0.815097
0.443131
0.373165
0.815097
0.443131
0.373165
0.815097
-0.154954
0.378089
0.912709
-0.154954
0.378089
0.912709
-0.154954
0.378089
0.912709
-0.575506
0.354988
0.736733
-0.575506
0.354988
0.736733
-0.575506
0.354988
0.736733
-0.945803
-0.279284
0.165705
-0.945803
-0.279284
0.165705
-0.945803
-0.279284
0.165705
1080
0.205458
0.0978
0.204249
0.045529
0.194557
0.054957
0.200892
0.15245
0.204931
0.095307
0.192166
0.125975
0.206
0.092566
0.190748
0.050054
0.189587
0.130721
0.204922
0.15354
0.190421
0.141729
0.194509
0.221286
0.207088
0.306335
0.201641
0.250206
0.193959
0.28804
0.193565
0.362002
0.203906
0.359416
0.204247
0.298965
0.188456
0.286077
0.206567
0.250726
0.200444
0.209199
0.195328
0.363057
0.198042
0.423995
0.204739
0.357203
0.192377
0.368516
0.205227
0.293852
0.190887
0.296648
0.880799
0.049927
0.919889
0.019791
0.884453
0.000669
0.832609
0.008483
0.883488
0.049347
0.881058
0.00127
0.799546
0.054503
0.846102
0.010833
0.811752
0.000672
0.922421
0.089918
0.94257
0.06562
0.920484
0.01768
0.840277
0.067448
0.875882
0.052839
0.842728
0.009284
0.880937
0.120815
0.918452
0.09114
0.880613
0.052229
0.839923
0.117083
0.876591
0.117693
0.840329
0.067275
0.811271
0.099503
0.842154
0.117505
0.844769
0.066641
0.77699
0.119641
0.814074
0.101927
0.786724
0.056944
0.810331
0.153468
0.845007
0.114419
0.811321
0.103939
0.911161
0.193657
0.920035
0.141761
0.884174
0.117556
0.840426
0.165161
0.877708
0.184512
0.87946
0.118959
0.844555
0.164489
0.810784
0.15968
0.844586
0.204497
0.938836
0.253568
0.981116
0.353131
0.945706
0.180836
0.917272
0.256926
0.939845
0.249485
0.920242
0.187562
0.884545
0.235438
0.909433
0.258317
0.881188
0.188958
0.840762
0.252672
0.876553
0.23342
0.840168
0.202991
0.812701
0.201709
0.812116
0.247401
0.842626
0.253792
0.781707
0.197751
0.810519
0.252813
0.809335
0.202007
0.881342
0.288184
0.916616
0.24587
0.884314
0.23683
0.878175
0.284544
0.876594
0.235552
0.837856
0.250802
0.925676
0.323044
0.949513
0.345328
0.937102
0.251094
0.88776
0.28986
0.913784
0.323861
0.909421
0.244793
0.842038
0.248328
0.812084
0.257436
0.802905
0.321506
0.840374
0.336167
0.87771
0.351042
0.840249
0.299992
0.844189
0.298966
0.804231
0.319779
0.844811
0.336039
0.923826
0.389208
0.944184
0.34841
0.92441
0.313882
0.886425
0.353001
0.912418
0.388942
0.917509
0.31972
0.838397
0.391631
0.875494
0.35208
0.840435
0.33519
0.803352
0.322161
0.81015
0.380961
0.841756
0.392057
0.773879
0.383539
0.81345
0.385899
0.79076
0.325477
0.947503
0.428412
0.980049
0.491323
0.947342
0.33835
0.918766
0.38543
0.948273
0.427677
0.950379
0.34783
0.921437
0.448317
0.942904
0.428212
0.923808
0.381763
0.880153
0.454751
0.914294
0.449558
0.884293
0.405151
0.832999
0.436947
0.882721
0.453851
0.881237
0.405737
0.843872
0.388966
0.809903
0.391374
0.810979
0.438174
0.772307
0.455232
0.812113
0.437959
0.814141
0.387563
0.928438
0.500076
0.956345
0.509064
0.945419
0.428045
0.831942
0.497403
0.879246
0.455801
0.832823
0.434217
0.810809
0.481364
0.841854
0.496406
0.810979
0.437512
0.7828
0.454559
0.806156
0.487286
0.805999
0.438139
0.884437
0.504996
0.921431
0.499804
0.880726
0.45843
0.920484
0.564613
0.946281
0.513483
0.926977
0.488312
0.910849
0.559497
0.919303
0.499688
0.88443
0.506124
0.876561
0.505264
0.840687
0.495203
0.87652
0.536636
0.844125
0.552264
0.844938
0.493826
0.811877
0.537808
0.770671
0.530981
0.814675
0.538409
0.81833
0.490187
0.680576
0.181814
0.646264
0.194839
0.653846
0.167366
0.640337
0.20265
0.681679
0.177541
0.760647
0.252091
0.732372
0.00621
0.743906
0.081141
0.691459
0.009966
0.708193
0.191956
0.67721
0.062871
0.744601
0.068896
0.747044
0.070133
0.745455
0.131746
0.704014
0.185977
0.684241
0.177468
0.707007
0.160617
0.748221
0.251357
0.75807
0.24055
0.712242
0.189527
0.752724
0.132223
0.742271
0.079705
0.67721
0.062871
0.685464
0.004929
0.577605
0.169658
0.532655
0.184063
0.524306
0.211898
0.522124
0.192522
0.639794
0.254647
0.57614
0.175027
0.615291
0.00831
0.569787
0.013172
0.626483
0.082014
0.588567
0.162761
0.62497
0.068269
0.560548
0.003169
0.621517
0.070197
0.588567
0.162761
0.634926
0.13644
0.633217
0.305614
0.588567
0.162761
0.577332
0.149983
0.644674
0.238075
0.634782
0.137066
0.588567
0.162761
0.259941
-0.006095
0.263066
0.031185
0.239018
0.005644
0.266042
0.035713
0.26322
0.069925
0.216041
0.041669
0.008937
0.328521
0.035327
0.326887
0.041173
0.360866
0.305254
0.066554
0.357002
0.163728
0.303966
0.173554
0.091708
0.054299
0.092935
-0.016919
0.134902
-0.009629
0.143336
-0.015641
0.135003
0.106715
0.087722
0.049244
0.135967
0.105967
0.106414
0.167199
0.083124
0.052405
0.142822
0.110008
0.126362
0.175361
0.094263
0.165076
0.14657
0.238729
0.067194
0.251584
0.160194
0.162113
0.510415
0.011526
0.472563
0.070848
0.456868
0.008066
0.517382
0.018258
0.505647
0.069193
0.465552
0.060751
0.472907
0.058541
0.505647
0.069193
0.472248
0.15639
0.471321
0.152242
0.507809
0.206866
0.477616
0.193556
0.505647
0.069193
0.499739
0.21424
0.474735
0.160813
0.466041
0.050194
0.436901
-0.024401
0.467736
-0.019064
0.448306
0.167026
0.469766
0.1686
0.457977
0.244497
0.513727
0.014045
0.521499
0.068422
0.497465
0.044869
0.525482
0.064122
0.527128
0.167435
0.504738
0.07762
0.533403
0.164001
0.530066
0.203053
0.473437
0.186088
0.456635
0.207007
0.531473
0.203882
0.546539
0.21658
0.522924
0.321101
0.528
0.386202
0.483492
0.321142
0.52687
0.388876
0.523398
0.480399
0.48514
0.482709
0.420145
0.054581
0.454947
0.072483
0.452685
-0.029007
0.433784
0.161716
0.453437
0.218308
0.456759
0.169727
0.431465
0.255846
0.449061
0.220492
0.438836
0.157473
0.422826
0.048698
0.419355
0.075855
0.438267
0.078484
0.415252
0.251682
0.459439
0.205279
0.375658
0.209205
0.413112
0.016559
0.419898
0.044954
0.456975
-0.009971
0.40155
0.312819
0.434837
0.314288
0.418081
0.266889
0.432876
0.394259
0.399295
0.384201
0.432161
0.496136
0.244474
0.030796
0.179826
0.039965
0.232393
0.067472
0.038377
0.662488
0.008109
0.660358
0.043815
1.0341
0.417337
0.011829
0.356846
-0.008654
0.358145
0.085399
0.411325
0.182664
0.426628
-0.001454
0.352961
0.085173
0.174726
0.174683
0.171964
0.103504
0.148698
0.163956
0.173875
-0.016406
0.136737
-0.035453
0.140747
0.070744
0.151544
0.163212
0.133395
0.06565
0.115133
0.172134
0.13369
0.205997
0.107678
0.234935
0.183026
0.242616
0.304306
0.012122
0.287838
-0.007846
0.256241
0.041792
0.303225
0.181791
0.313517
0.007696
0.277936
0.063481
0.284844
0.189364
0.296592
0.193207
0.303225
0.181791
0.22946
0.055872
0.285342
0.180285
0.303225
0.181791
0.270673
0.063781
0.241815
0.053319
0.303225
0.181791
0.948175
0.057972
0.952312
-0.0222
0.919066
0.027035
0.909302
0.093567
0.915741
0.01687
0.886203
0.049631
0.844736
0.068926
0.844194
0.011969
0.801217
0.056434
0.876591
0.117693
0.878329
0.051801
0.840329
0.067275
0.811271
0.099503
0.844769
0.066641
0.800749
0.059983
0.923352
0.143047
0.945111
0.070058
0.922256
0.087264
0.918455
0.142465
0.913526
0.088154
0.887477
0.119086
0.816816
0.153871
0.813774
0.101751
0.772951
0.119049
0.946615
0.184776
0.9619
0.065392
0.922114
0.13922
0.840426
0.165161
0.87946
0.118959
0.845101
0.114638
0.844957
0.165665
0.845642
0.115039
0.811907
0.153798
0.772115
0.19595
0.812768
0.153209
0.7767
0.117999
1.027973
0.352866
1.051391
0.029187
0.989847
-0.0518
0.920026
0.191976
0.942354
0.184954
0.930119
0.1389
0.840258
0.204039
0.87517
0.185642
0.840873
0.164357
0.80933
0.201895
0.807372
0.154968
0.783601
0.197617
0.981116
0.353131
0.993872
0.056216
0.945706
0.180836
0.936729
0.25444
0.946012
0.186394
0.923931
0.183504
0.909433
0.258317
0.914069
0.188773
0.881188
0.188958
0.876553
0.23342
0.877557
0.186924
0.840168
0.202991
0.781193
0.276601
0.809422
0.252445
0.78036
0.197382
0.921158
0.321007
0.940589
0.254275
0.918547
0.248381
0.839723
0.300566
0.875581
0.288447
0.840251
0.250349
0.793268
0.322019
0.809702
0.252549
0.781309
0.276431
0.881438
0.349094
0.922115
0.322983
0.882812
0.288986
0.884555
0.402845
0.919221
0.387314
0.880283
0.352781
0.87664
0.401709
0.878169
0.353478
0.837969
0.390938
0.914054
0.453116
0.912067
0.384265
0.884418
0.403788
0.840269
0.439843
0.876698
0.403869
0.84246
0.390348
0.772307
0.455232
0.814141
0.387563
0.776357
0.382248
0.928438
0.500076
0.945419
0.428045
0.918831
0.449817
0.921431
0.499804
0.907171
0.444837
0.880726
0.45843
0.88105
0.50346
0.882524
0.456514
0.828587
0.500271
0.764738
0.532344
0.828496
0.486836
0.769304
0.45887
0.261092
0.068139
0.209377
0.063698
0.222387
0.045508
0.008932
0.326544
0.038019
0.367677
-0.020356
0.389847
0.303373
-0.008393
0.350076
0.006514
0.317277
0.080716
0.359484
0.185813
0.313504
0.075516
0.356083
-0.002158
0.129507
0.170457
0.085529
0.245468
0.092323
0.163232
0.468817
0.161338
0.449378
0.159432
0.46583
0.06078
0.520653
0.064637
0.50483
0.076367
0.498803
0.047777
0.531794
0.154697
0.473578
0.18202
0.505955
0.098706
0.526749
0.389042
0.484422
0.396038
0.485795
0.313714
0.421118
0.061259
0.435404
0.15923
0.455012
0.074919
0.443868
0.186743
0.393759
0.202877
0.456042
0.209079
0.178413
0.039336
0.190324
0.064984
0.232814
0.072231
-0.012786
1.183727
0.041157
1.013797
0.010293
0.651087
0.365358
0.080716
0.334396
0.167036
0.392903
0.154388
0.143186
0.06627
0.172903
0.10139
0.173413
-0.009921
0.172662
0.102788
0.142443
0.066623
0.146779
0.16177
0.172116
0.170658
0.14664
0.164658
0.134687
0.218082
0.135056
0.217038
0.182786
0.228219
0.174474
0.172406
0.310373
0.02098
0.255135
0.040194
0.273428
0.067111
0.815062
-0.001936
0.771914
-0.007769
0.788517
0.053538
0.911161
0.193657
0.884174
0.117556
0.880911
0.185865
0.910849
0.559497
0.88443
0.506124
0.884563
0.538603
0.844938
0.493826
0.811729
0.491396
0.811877
0.537808
0.810784
0.15968
0.812713
0.202218
0.844586
0.204497
0.844732
0.20248
0.812701
0.201709
0.842626
0.253792
0.844513
0.300912
0.842038
0.248328
0.802905
0.321506
0.87771
0.351042
0.877626
0.291959
0.840249
0.299992
0.844701
0.334539
0.803352
0.322161
0.841756
0.392057
0.844916
0.438017
0.843872
0.388966
0.810979
0.438174
0.841854
0.496406
0.844843
0.435937
0.810979
0.437512
0.840687
0.495203
0.841737
0.550673
0.87652
0.536636
