1800
-0.179889
2.196183
-0.238479
-0.120862
1.984675
-0.143304
-0.262153
2.108561
-0.041846
-0.129814
2.419345
-0.225655
-0.179889
2.196183
-0.238479
-0.293538
2.318925
-0.070856
0.070826
2.547972
0.104458
0.047263
2.538215
-0.124338
-0.17597
2.51057
0.044663
0.106481
2.394537
-0.258414
0.004335
2.174569
-0.289473
-0.129814
2.419345
-0.225655
0.047263
2.538215
-0.124338
0.106481
2.394537
-0.258414
-0.129814
2.419345
-0.225655
0.189051
2.210567
-0.235859
0.125966
1.986309
-0.145686
0.004335
2.174569
-0.289473
0.106481
2.394537
-0.258414
0.189051
2.210567
-0.235859
0.004335
2.174569
-0.289473
0.261771
2.408111
-0.049658
0.282273
2.167717
-0.064227
0.189051
2.210567
-0.235859
0.070826
2.547972
0.104458
0.261771
2.408111
-0.049658
0.047263
2.538215
-0.124338
0.282273
2.167717
-0.064227
0.191825
1.981499
0.024102
0.125966
1.986309
-0.145686
0.252024
2.192708
0.146389
0.191825
1.981499
0.024102
0.282273
2.167717
-0.064227
0.181505
2.387494
0.211682
0.252024
2.192708
0.146389
0.261771
2.408111
-0.049658
0.070826
2.547972
0.104458
0.181505
2.387494
0.211682
0.261771
2.408111
-0.049658
0.009384
2.175092
0.293463
0.081575
1.97708
0.176896
0.252024
2.192708
0.146389
-0.061298
2.409934
0.256687
0.009384
2.175092
0.293463
0.181505
2.387494
0.211682
-0.17597
2.51057
0.044663
-0.250112
2.246142
0.164838
-0.061298
2.409934
0.256687
-0.250112
2.246142
0.164838
-0.262153
2.108561
-0.041846
-0.131629
1.989811
0.131739
-0.293538
2.318925
-0.070856
-0.262153
2.108561
-0.041846
-0.250112
2.246142
0.164838
-0.120862
1.984675
-0.143304
0.004335
2.174569
-0.289473
0.125966
1.986309
-0.145686
0.081575
1.97708
0.176896
0.009384
2.175092
0.293463
-0.131629
1.989811
0.131739
-0.131629
1.989811
0.131739
-0.262153
2.108561
-0.041846
-0.120862
1.984675
-0.143304
-0.49602
0.085542
-0.294408
-0.283886
0.008164
-0.238992
-0.455927
0.019651
0.089657
-0.49602
0.085542
-0.294408
-0.571539
0.085111
0.110991
-0.487523
0.242073
0.109716
-0.509766
0.40907
-0.194687
-0.455049
0.2394
-0.194573
-0.487523
0.242073
0.109716
-0.369096
0.664088
-0.152327
-0.509766
0.40907
-0.194687
-0.520456
0.421144
0.154122
-0.240002
0.964376
-0.162254
-0.297123
0.857662
-0.199987
-0.289363
0.952567
0.040466
-0.240002
0.964376
-0.162254
-0.289363
0.952567
0.040466
-0.16734
1.438355
-0.116254
-0.16734
1.438355
-0.116254
-0.198909
1.440008
0.03994
-0.228274
1.778965
0.04885
-0.259252
1.855135
-0.153636
-0.18134
1.771706
-0.140129
-0.228274
1.778965
0.04885
-0.120862
1.984675
-0.143304
-0.259252
1.855135
-0.153636
-0.288268
1.871718
0.0629
-0.285626
0.227398
-0.410264
-0.49602
0.085542
-0.294408
-0.455049
0.2394
-0.194573
-0.285626
0.227398
-0.410264
-0.455049
0.2394
-0.194573
-0.509766
0.40907
-0.194687
-0.369096
0.664088
-0.152327
-0.303773
0.430826
-0.453827
-0.509766
0.40907
-0.194687
-0.0179
0.84631
-0.367386
-0.114482
0.671754
-0.377715
-0.297123
0.857662
-0.199987
-0.297123
0.857662
-0.199987
-0.240002
0.964376
-0.162254
0.01945
0.955925
-0.294484
0.01945
0.955925
-0.294484
-0.240002
0.964376
-0.162254
-0.16734
1.438355
-0.116254
-0.16734
1.438355
-0.116254
-0.18134
1.771706
-0.140129
0.004903
1.764995
-0.234902
0.004045
1.853087
-0.296379
0.004903
1.764995
-0.234902
-0.18134
1.771706
-0.140129
-0.120862
1.984675
-0.143304
0.004045
1.853087
-0.296379
-0.259252
1.855135
-0.153636
0.006334
0.230313
-0.495321
-0.285626
0.227398
-0.410264
0.008966
0.440132
-0.540561
0.291556
0.227735
-0.406668
0.223635
0.091359
-0.531561
0.006334
0.230313
-0.495321
0.006334
0.230313
-0.495321
0.008966
0.440132
-0.540561
0.291556
0.227735
-0.406668
0.14426
0.673034
-0.366822
0.311859
0.433112
-0.44825
0.008966
0.440132
-0.540561
-0.0179
0.84631
-0.367386
0.14426
0.673034
-0.366822
-0.114482
0.671754
-0.377715
0.125966
1.986309
-0.145686
0.004045
1.853087
-0.296379
-0.120862
1.984675
-0.143304
0.501001
0.086013
-0.280777
0.213264
0.011445
-0.360271
0.223635
0.091359
-0.531561
0.291556
0.227735
-0.406668
0.501001
0.086013
-0.280777
0.223635
0.091359
-0.531561
0.344048
0.671839
-0.200293
0.311859
0.433112
-0.44825
0.14426
0.673034
-0.366822
0.244077
0.850987
-0.263955
0.344048
0.671839
-0.200293
0.14426
0.673034
-0.366822
0.251036
0.951578
-0.153666
0.244077
0.850987
-0.263955
0.01945
0.955925
-0.294484
0.01945
0.955925
-0.294484
0.005632
1.441396
-0.20401
0.251036
0.951578
-0.153666
0.170148
1.440098
-0.10659
0.005632
1.441396
-0.20401
0.004903
1.764995
-0.234902
0.259907
1.868564
-0.148921
0.185036
1.772022
-0.131061
0.004045
1.853087
-0.296379
0.291556
0.227735
-0.406668
0.311859
0.433112
-0.44825
0.528131
0.424935
-0.133338
0.356597
0.852217
-0.070613
0.344048
0.671839
-0.200293
0.244077
0.850987
-0.263955
0.191825
1.981499
0.024102
0.259907
1.868564
-0.148921
0.125966
1.986309
-0.145686
0.565495
0.085139
0.120769
0.451888
0.019256
0.080083
0.501001
0.086013
-0.280777
0.501001
0.086013
-0.280777
0.458176
0.239628
-0.187478
0.483055
0.242013
0.122351
0.387271
0.668126
0.080242
0.528131
0.424935
-0.133338
0.344048
0.671839
-0.200293
0.251036
0.951578
-0.153666
0.170148
1.440098
-0.10659
0.291098
0.951244
0.058262
0.170148
1.440098
-0.10659
0.185036
1.772022
-0.131061
0.183418
1.406171
0.098484
0.214216
1.774626
0.09547
0.185036
1.772022
-0.131061
0.259907
1.868564
-0.148921
0.191825
1.981499
0.024102
0.289397
1.872002
0.080553
0.259907
1.868564
-0.148921
0.216101
0.005243
0.276958
-0.283886
0.008164
-0.238992
0.213264
0.011445
-0.360271
0.387271
0.668126
0.080242
0.490599
0.423283
0.223721
0.528131
0.424935
-0.133338
0.333676
0.091268
0.467816
0.216101
0.005243
0.276958
0.451888
0.019256
0.080083
0.30059
0.24783
0.394932
0.333676
0.091268
0.467816
0.483055
0.242013
0.122351
0.306229
0.417061
0.463114
0.30059
0.24783
0.394932
0.490599
0.423283
0.223721
0.217652
0.666657
0.334445
0.306229
0.417061
0.463114
0.490599
0.423283
0.223721
0.293298
0.85927
0.210501
0.217652
0.666657
0.334445
0.387271
0.668126
0.080242
0.081575
1.97708
0.176896
0.137022
1.854878
0.273173
0.289397
1.872002
0.080553
0.070181
0.846377
0.356698
0.217652
0.666657
0.334445
0.293298
0.85927
0.210501
0.059332
0.966499
0.280311
0.070181
0.846377
0.356698
0.293298
0.85927
0.210501
0.040626
1.439511
0.198568
0.059332
0.966499
0.280311
0.183418
1.406171
0.098484
0.183418
1.406171
0.098484
0.214216
1.774626
0.09547
0.042773
1.772013
0.225851
0.137022
1.854878
0.273173
0.042773
1.772013
0.225851
0.214216
1.774626
0.09547
-0.173471
0.009872
0.385285
-0.283886
0.008164
-0.238992
0.216101
0.005243
0.276958
-0.173471
0.009872
0.385285
0.216101
0.005243
0.276958
0.333676
0.091268
0.467816
0.013429
0.23031
0.493213
-0.130751
0.092004
0.563271
0.333676
0.091268
0.467816
0.013429
0.23031
0.493213
0.30059
0.24783
0.394932
0.012952
0.440361
0.539123
-0.099146
0.671959
0.382908
0.012952
0.440361
0.539123
0.217652
0.666657
0.334445
-0.295831
0.237975
0.39854
-0.130751
0.092004
0.563271
0.013429
0.23031
0.493213
0.013429
0.23031
0.493213
0.012952
0.440361
0.539123
-0.295831
0.237975
0.39854
-0.099146
0.671959
0.382908
-0.302723
0.430954
0.453248
0.012952
0.440361
0.539123
-0.179393
0.950486
0.234786
-0.197096
0.857769
0.304218
0.059332
0.966499
0.280311
-0.179393
0.950486
0.234786
0.059332
0.966499
0.280311
0.040626
1.439511
0.198568
0.040626
1.439511
0.198568
0.042773
1.772013
0.225851
-0.11484
1.435061
0.170863
-0.148909
1.856628
0.257734
-0.129851
1.763604
0.193744
0.042773
1.772013
0.225851
-0.131629
1.989811
0.131739
-0.148909
1.856628
0.257734
0.081575
1.97708
0.176896
-0.418937
0.086115
0.386377
-0.173471
0.009872
0.385285
-0.130751
0.092004
0.563271
-0.295831
0.237975
0.39854
-0.418937
0.086115
0.386377
-0.130751
0.092004
0.563271
-0.33452
0.672856
0.207845
-0.302723
0.430954
0.453248
-0.099146
0.671959
0.382908
-0.197096
0.857769
0.304218
-0.33452
0.672856
0.207845
-0.099146
0.671959
0.382908
-0.571539
0.085111
0.110991
-0.455927
0.019651
0.089657
-0.418937
0.086115
0.386377
-0.487523
0.242073
0.109716
-0.571539
0.085111
0.110991
-0.418937
0.086115
0.386377
-0.520456
0.421144
0.154122
-0.487523
0.242073
0.109716
-0.295831
0.237975
0.39854
-0.348853
0.853537
0.081025
-0.33452
0.672856
0.207845
-0.197096
0.857769
0.304218
-0.289363
0.952567
0.040466
-0.348853
0.853537
0.081025
-0.179393
0.950486
0.234786
-0.179393
0.950486
0.234786
-0.11484
1.435061
0.170863
-0.289363
0.952567
0.040466
-0.198909
1.440008
0.03994
-0.11484
1.435061
0.170863
-0.228274
1.778965
0.04885
-0.288268
1.871718
0.0629
-0.228274
1.778965
0.04885
-0.148909
1.856628
0.257734
-0.455927
0.019651
0.089657
-0.283886
0.008164
-0.238992
-0.173471
0.009872
0.385285
-0.369096
0.664088
-0.152327
-0.520456
0.421144
0.154122
-0.33452
0.672856
0.207845
-0.179889
2.196183
-0.238479
-0.262153
2.108561
-0.041846
-0.293538
2.318925
-0.070856
-0.129814
2.419345
-0.225655
-0.293538
2.318925
-0.070856
-0.17597
2.51057
0.044663
0.047263
2.538215
-0.124338
-0.129814
2.419345
-0.225655
-0.17597
2.51057
0.044663
0.004335
2.174569
-0.289473
-0.120862
1.984675
-0.143304
-0.179889
2.196183
-0.238479
0.004335
2.174569
-0.289473
-0.179889
2.196183
-0.238479
-0.129814
2.419345
-0.225655
0.282273
2.167717
-0.064227
0.125966
1.986309
-0.145686
0.189051
2.210567
-0.235859
0.261771
2.408111
-0.049658
0.189051
2.210567
-0.235859
0.106481
2.394537
-0.258414
0.261771
2.408111
-0.049658
0.106481
2.394537
-0.258414
0.047263
2.538215
-0.124338
0.252024
2.192708
0.146389
0.282273
2.167717
-0.064227
0.261771
2.408111
-0.049658
0.081575
1.97708
0.176896
0.191825
1.981499
0.024102
0.252024
2.192708
0.146389
0.009384
2.175092
0.293463
0.252024
2.192708
0.146389
0.181505
2.387494
0.211682
-0.061298
2.409934
0.256687
0.181505
2.387494
0.211682
0.070826
2.547972
0.104458
-0.250112
2.246142
0.164838
-0.131629
1.989811
0.131739
0.009384
2.175092
0.293463
-0.250112
2.246142
0.164838
0.009384
2.175092
0.293463
-0.061298
2.409934
0.256687
-0.17597
2.51057
0.044663
-0.061298
2.409934
0.256687
0.070826
2.547972
0.104458
-0.293538
2.318925
-0.070856
-0.250112
2.246142
0.164838
-0.17597
2.51057
0.044663
-0.49602
0.085542
-0.294408
-0.455927
0.019651
0.089657
-0.571539
0.085111
0.110991
-0.509766
0.40907
-0.194687
-0.487523
0.242073
0.109716
-0.520456
0.421144
0.154122
-0.297123
0.857662
-0.199987
-0.369096
0.664088
-0.152327
-0.348853
0.853537
0.081025
-0.297123
0.857662
-0.199987
-0.348853
0.853537
0.081025
-0.289363
0.952567
0.040466
-0.259252
1.855135
-0.153636
-0.228274
1.778965
0.04885
-0.288268
1.871718
0.0629
-0.120862
1.984675
-0.143304
-0.288268
1.871718
0.0629
-0.131629
1.989811
0.131739
-0.134294
0.085604
-0.551726
-0.283886
0.008164
-0.238992
-0.49602
0.085542
-0.294408
-0.134294
0.085604
-0.551726
-0.49602
0.085542
-0.294408
-0.285626
0.227398
-0.410264
-0.114482
0.671754
-0.377715
-0.303773
0.430826
-0.453827
-0.369096
0.664088
-0.152327
-0.114482
0.671754
-0.377715
-0.369096
0.664088
-0.152327
-0.297123
0.857662
-0.199987
0.004045
1.853087
-0.296379
-0.18134
1.771706
-0.140129
-0.259252
1.855135
-0.153636
0.213264
0.011445
-0.360271
-0.283886
0.008164
-0.238992
-0.134294
0.085604
-0.551726
0.006334
0.230313
-0.495321
-0.134294
0.085604
-0.551726
-0.285626
0.227398
-0.410264
0.008966
0.440132
-0.540561
-0.303773
0.430826
-0.453827
-0.114482
0.671754
-0.377715
0.223635
0.091359
-0.531561
0.213264
0.011445
-0.360271
-0.134294
0.085604
-0.551726
0.223635
0.091359
-0.531561
-0.134294
0.085604
-0.551726
0.006334
0.230313
-0.495321
0.14426
0.673034
-0.366822
0.008966
0.440132
-0.540561
-0.114482
0.671754
-0.377715
0.244077
0.850987
-0.263955
0.14426
0.673034
-0.366822
-0.0179
0.84631
-0.367386
0.244077
0.850987
-0.263955
-0.0179
0.84631
-0.367386
0.01945
0.955925
-0.294484
0.185036
1.772022
-0.131061
0.004903
1.764995
-0.234902
0.004045
1.853087
-0.296379
0.259907
1.868564
-0.148921
0.004045
1.853087
-0.296379
0.125966
1.986309
-0.145686
0.458176
0.239628
-0.187478
0.501001
0.086013
-0.280777
0.291556
0.227735
-0.406668
0.528131
0.424935
-0.133338
0.311859
0.433112
-0.44825
0.344048
0.671839
-0.200293
0.356597
0.852217
-0.070613
0.244077
0.850987
-0.263955
0.251036
0.951578
-0.153666
0.451888
0.019256
0.080083
0.213264
0.011445
-0.360271
0.501001
0.086013
-0.280777
0.483055
0.242013
0.122351
0.458176
0.239628
-0.187478
0.528131
0.424935
-0.133338
0.387271
0.668126
0.080242
0.344048
0.671839
-0.200293
0.356597
0.852217
-0.070613
0.291098
0.951244
0.058262
0.356597
0.852217
-0.070613
0.251036
0.951578
-0.153666
0.216101
0.005243
0.276958
0.213264
0.011445
-0.360271
0.451888
0.019256
0.080083
0.490599
0.423283
0.223721
0.483055
0.242013
0.122351
0.528131
0.424935
-0.133338
0.293298
0.85927
0.210501
0.387271
0.668126
0.080242
0.356597
0.852217
-0.070613
0.293298
0.85927
0.210501
0.356597
0.852217
-0.070613
0.291098
0.951244
0.058262
0.333676
0.091268
0.467816
0.451888
0.019256
0.080083
0.565495
0.085139
0.120769
0.333676
0.091268
0.467816
0.565495
0.085139
0.120769
0.483055
0.242013
0.122351
0.30059
0.24783
0.394932
0.483055
0.242013
0.122351
0.490599
0.423283
0.223721
0.217652
0.666657
0.334445
0.490599
0.423283
0.223721
0.387271
0.668126
0.080242
0.208804
0.962882
0.202175
0.293298
0.85927
0.210501
0.291098
0.951244
0.058262
0.208804
0.962882
0.202175
0.291098
0.951244
0.058262
0.183418
1.406171
0.098484
0.137022
1.854878
0.273173
0.214216
1.774626
0.09547
0.289397
1.872002
0.080553
0.081575
1.97708
0.176896
0.289397
1.872002
0.080553
0.191825
1.981499
0.024102
0.059332
0.966499
0.280311
0.293298
0.85927
0.210501
0.208804
0.962882
0.202175
0.059332
0.966499
0.280311
0.208804
0.962882
0.202175
0.183418
1.406171
0.098484
0.013429
0.23031
0.493213
0.333676
0.091268
0.467816
0.30059
0.24783
0.394932
0.012952
0.440361
0.539123
0.306229
0.417061
0.463114
0.217652
0.666657
0.334445
-0.099146
0.671959
0.382908
0.217652
0.666657
0.334445
0.070181
0.846377
0.356698
-0.197096
0.857769
0.304218
-0.099146
0.671959
0.382908
0.070181
0.846377
0.356698
-0.197096
0.857769
0.304218
0.070181
0.846377
0.356698
0.059332
0.966499
0.280311
-0.148909
1.856628
0.257734
0.042773
1.772013
0.225851
0.137022
1.854878
0.273173
-0.148909
1.856628
0.257734
0.137022
1.854878
0.273173
0.081575
1.97708
0.176896
-0.455927
0.019651
0.089657
-0.173471
0.009872
0.385285
-0.418937
0.086115
0.386377
-0.487523
0.242073
0.109716
-0.418937
0.086115
0.386377
-0.295831
0.237975
0.39854
-0.520456
0.421144
0.154122
-0.295831
0.237975
0.39854
-0.302723
0.430954
0.453248
-0.520456
0.421144
0.154122
-0.302723
0.430954
0.453248
-0.33452
0.672856
0.207845
-0.348853
0.853537
0.081025
-0.197096
0.857769
0.304218
-0.179393
0.950486
0.234786
-0.228274
1.778965
0.04885
-0.129851
1.763604
0.193744
-0.148909
1.856628
0.257734
-0.288268
1.871718
0.0629
-0.148909
1.856628
0.257734
-0.131629
1.989811
0.131739
-0.369096
0.664088
-0.152327
-0.33452
0.672856
0.207845
-0.348853
0.853537
0.081025
-0.455049
0.2394
-0.194573
-0.49602
0.085542
-0.294408
-0.487523
0.242073
0.109716
-0.289363
0.952567
0.040466
-0.198909
1.440008
0.03994
-0.16734
1.438355
-0.116254
-0.18134
1.771706
-0.140129
-0.16734
1.438355
-0.116254
-0.228274
1.778965
0.04885
-0.303773
0.430826
-0.453827
-0.285626
0.227398
-0.410264
-0.509766
0.40907
-0.194687
-0.0179
0.84631
-0.367386
-0.297123
0.857662
-0.199987
0.01945
0.955925
-0.294484
0.005632
1.441396
-0.20401
0.01945
0.955925
-0.294484
-0.16734
1.438355
-0.116254
0.005632
1.441396
-0.20401
-0.16734
1.438355
-0.116254
0.004903
1.764995
-0.234902
-0.285626
0.227398
-0.410264
-0.303773
0.430826
-0.453827
0.008966
0.440132
-0.540561
0.008966
0.440132
-0.540561
0.311859
0.433112
-0.44825
0.291556
0.227735
-0.406668
0.005632
1.441396
-0.20401
0.170148
1.440098
-0.10659
0.251036
0.951578
-0.153666
0.185036
1.772022
-0.131061
0.170148
1.440098
-0.10659
0.004903
1.764995
-0.234902
0.458176
0.239628
-0.187478
0.291556
0.227735
-0.406668
0.528131
0.424935
-0.133338
0.565495
0.085139
0.120769
0.501001
0.086013
-0.280777
0.483055
0.242013
0.122351
0.170148
1.440098
-0.10659
0.183418
1.406171
0.098484
0.291098
0.951244
0.058262
0.185036
1.772022
-0.131061
0.214216
1.774626
0.09547
0.183418
1.406171
0.098484
0.289397
1.872002
0.080553
0.214216
1.774626
0.09547
0.259907
1.868564
-0.148921
0.040626
1.439511
0.198568
0.183418
1.406171
0.098484
0.042773
1.772013
0.225851
-0.130751
0.092004
0.563271
-0.173471
0.009872
0.385285
0.333676
0.091268
0.467816
0.30059
0.24783
0.394932
0.306229
0.417061
0.463114
0.012952
0.440361
0.539123
0.012952
0.440361
0.539123
-0.302723
0.430954
0.453248
-0.295831
0.237975
0.39854
-0.11484
1.435061
0.170863
-0.179393
0.950486
0.234786
0.040626
1.439511
0.198568
0.042773
1.772013
0.225851
-0.129851
1.763604
0.193744
-0.11484
1.435061
0.170863
-0.11484
1.435061
0.170863
-0.198909
1.440008
0.03994
-0.289363
0.952567
0.040466
-0.11484
1.435061
0.170863
-0.129851
1.763604
0.193744
-0.228274
1.778965
0.04885
1800
-0.744833
-0.43539
-0.505628
-0.744833
-0.43539
-0.505628
-0.744833
-0.43539
-0.505628
-0.735458
0.20219
-0.6467
-0.735458
0.20219
-0.6467
-0.735458
0.20219
-0.6467
-0.143284
0.989301
-0.027431
-0.143284
0.989301
-0.027431
-0.143284
0.989301
-0.027431
-0.115084
0.19108
-0.974805
-0.115084
0.19108
-0.974805
-0.115084
0.19108
-0.974805
-0.031334
0.674986
-0.737165
-0.031334
0.674986
-0.737165
-0.031334
0.674986
-0.737165
0.327964
-0.430401
-0.840949
0.327964
-0.430401
-0.840949
0.327964
-0.430401
-0.840949
0.277521
0.006776
-0.960696
0.277521
0.006776
-0.960696
0.277521
0.006776
-0.960696
0.884631
0.103009
-0.454771
0.884631
0.103009
-0.454771
0.884631
0.103009
-0.454771
0.539461
0.837051
-0.091254
0.539461
0.837051
-0.091254
0.539461
0.837051
-0.091254
0.784091
-0.53226
-0.319218
0.784091
-0.53226
-0.319218
0.784091
-0.53226
-0.319218
0.915701
-0.36201
0.17447
0.915701
-0.36201
0.17447
0.915701
-0.36201
0.17447
0.924236
0.233286
0.302266
0.924236
0.233286
0.302266
0.924236
0.233286
0.302266
0.700468
0.66172
0.267341
0.700468
0.66172
0.267341
0.700468
0.66172
0.267341
0.511405
-0.289799
0.809
0.511405
-0.289799
0.809
0.511405
-0.289799
0.809
0.196883
0.209253
0.957836
0.196883
0.209253
0.957836
0.196883
0.209253
0.957836
-0.675969
0.453515
0.580853
-0.675969
0.453515
0.580853
-0.675969
0.453515
0.580853
-0.837885
-0.430606
0.33545
-0.837885
-0.430606
0.33545
-0.837885
-0.430606
0.33545
-0.98174
-0.126932
0.141687
-0.98174
-0.126932
0.141687
-0.98174
-0.126932
0.141687
-0.00363
-0.608458
-0.793578
-0.00363
-0.608458
-0.793578
-0.00363
-0.608458
-0.793578
-0.204284
-0.550851
0.809216
-0.204284
-0.550851
0.809216
-0.204284
-0.550851
0.809216
-0.664102
-0.747545
-0.012039
-0.664102
-0.747545
-0.012039
-0.664102
-0.747545
-0.012039
-0.309823
-0.941967
-0.129261
-0.309823
-0.941967
-0.129261
-0.309823
-0.941967
-0.129261
-0.870591
0.464682
-0.161682
-0.870591
0.464682
-0.161682
-0.870591
0.464682
-0.161682
-0.947095
-0.305498
-0.098393
-0.947095
-0.305498
-0.098393
-0.947095
-0.305498
-0.098393
-0.871706
0.488085
-0.043611
-0.871706
0.488085
-0.043611
-0.871706
0.488085
-0.043611
-0.840973
0.512014
-0.174947
-0.840973
0.512014
-0.174947
-0.840973
0.512014
-0.174947
-0.959872
0.168879
-0.223888
-0.959872
0.168879
-0.223888
-0.959872
0.168879
-0.223888
-0.977241
-0.079491
-0.196675
-0.977241
-0.079491
-0.196675
-0.977241
-0.079491
-0.196675
-0.710361
-0.687667
-0.150006
-0.710361
-0.687667
-0.150006
-0.710361
-0.687667
-0.150006
-0.670285
0.72769
-0.145549
-0.670285
0.72769
-0.145549
-0.670285
0.72769
-0.145549
-0.654074
0.52656
-0.543068
-0.654074
0.52656
-0.543068
-0.654074
0.52656
-0.543068
-0.768456
-0.24822
-0.589798
-0.768456
-0.24822
-0.589798
-0.768456
-0.24822
-0.589798
-0.70716
0.4768
-0.522098
-0.70716
0.4768
-0.522098
-0.70716
0.4768
-0.522098
-0.478865
0.313479
-0.820012
-0.478865
0.313479
-0.820012
-0.478865
0.313479
-0.820012
-0.384812
0.483895
-0.785981
-0.384812
0.483895
-0.785981
-0.384812
0.483895
-0.785981
-0.444694
0.153807
-0.882378
-0.444694
0.153807
-0.882378
-0.444694
0.153807
-0.882378
-0.454339
-0.082608
-0.88699
-0.454339
-0.082608
-0.88699
-0.454339
-0.082608
-0.88699
-0.400438
-0.527019
-0.7496
-0.400438
-0.527019
-0.7496
-0.400438
-0.527019
-0.7496
-0.410035
0.49895
-0.763492
-0.410035
0.49895
-0.763492
-0.410035
0.49895
-0.763492
-0.272239
-0.199546
-0.941311
-0.272239
-0.199546
-0.941311
-0.272239
-0.199546
-0.941311
0.245461
0.58539
-0.772701
0.245461
0.58539
-0.772701
0.245461
0.58539
-0.772701
0.288801
-0.20525
-0.935129
0.288801
-0.20525
-0.935129
0.288801
-0.20525
-0.935129
0.267036
0.471741
-0.840329
0.267036
0.471741
-0.840329
0.267036
0.471741
-0.840329
0.041859
0.035922
-0.998478
0.041859
0.035922
-0.998478
0.041859
0.035922
-0.998478
-0.011332
0.753686
-0.657137
-0.011332
0.753686
-0.657137
-0.011332
0.753686
-0.657137
0.329422
-0.863128
-0.38274
0.329422
-0.863128
-0.38274
0.329422
-0.863128
-0.38274
0.638289
0.322314
-0.699072
0.638289
0.322314
-0.699072
0.638289
0.322314
-0.699072
0.524353
0.578384
-0.624921
0.524353
0.578384
-0.624921
0.524353
0.578384
-0.624921
0.638293
0.084278
-0.765166
0.638293
0.084278
-0.765166
0.638293
0.084278
-0.765166
0.396838
0.665572
-0.632087
0.396838
0.665572
-0.632087
0.396838
0.665572
-0.632087
0.514218
0.171254
-0.840388
0.514218
0.171254
-0.840388
0.514218
0.171254
-0.840388
0.507392
-0.08076
-0.857923
0.507392
-0.08076
-0.857923
0.507392
-0.08076
-0.857923
0.456972
-0.491537
-0.741329
0.456972
-0.491537
-0.741329
0.456972
-0.491537
-0.741329
0.806499
-0.192884
-0.558887
0.806499
-0.192884
-0.558887
0.806499
-0.192884
-0.558887
0.82645
0.289612
-0.48281
0.82645
0.289612
-0.48281
0.82645
0.289612
-0.48281
0.63984
0.734097
-0.227392
0.63984
0.734097
-0.227392
0.63984
0.734097
-0.227392
0.522634
-0.84823
-0.085788
0.522634
-0.84823
-0.085788
0.522634
-0.84823
-0.085788
0.946959
0.311634
-0.078438
0.946959
0.311634
-0.078438
0.946959
0.311634
-0.078438
0.811152
0.572932
-0.117396
0.811152
0.572932
-0.117396
0.811152
0.572932
-0.117396
0.96701
0.177705
-0.182519
0.96701
0.177705
-0.182519
0.96701
0.177705
-0.182519
0.996095
-0.050043
-0.072738
0.996095
-0.050043
-0.072738
0.996095
-0.050043
-0.072738
0.778365
-0.620866
-0.093125
0.778365
-0.620866
-0.093125
0.778365
-0.620866
-0.093125
0.769281
0.629666
-0.108297
0.769281
0.629666
-0.108297
0.769281
0.629666
-0.108297
0.004221
-0.999944
-0.009751
0.004221
-0.999944
-0.009751
0.004221
-0.999944
-0.009751
0.895617
0.434309
0.096151
0.895617
0.434309
0.096151
0.895617
0.434309
0.096151
0.267457
-0.929445
0.254164
0.267457
-0.929445
0.254164
0.267457
-0.929445
0.254164
0.766618
0.396957
0.504699
0.766618
0.396957
0.504699
0.766618
0.396957
0.504699
0.768042
-0.261174
0.584722
0.768042
-0.261174
0.584722
0.768042
-0.261174
0.584722
0.673456
0.513251
0.532005
0.673456
0.513251
0.532005
0.673456
0.513251
0.532005
0.831352
0.030568
0.554905
0.831352
0.030568
0.554905
0.831352
0.030568
0.554905
0.564294
0.653502
0.504488
0.564294
0.653502
0.504488
0.564294
0.653502
0.504488
0.506978
0.316741
0.801653
0.506978
0.316741
0.801653
0.506978
0.316741
0.801653
0.451548
0.507469
0.73388
0.451548
0.507469
0.73388
0.451548
0.507469
0.73388
0.591347
0.159975
0.790391
0.591347
0.159975
0.790391
0.591347
0.159975
0.790391
0.605168
-0.044083
0.794876
0.605168
-0.044083
0.794876
0.605168
-0.044083
0.794876
0.404307
-0.754819
0.516512
0.404307
-0.754819
0.516512
0.404307
-0.754819
0.516512
-0.010599
-0.999933
0.004611
-0.010599
-0.999933
0.004611
-0.010599
-0.999933
0.004611
0.089842
-0.927554
0.362729
0.089842
-0.927554
0.362729
0.089842
-0.927554
0.362729
0.193992
0.274795
0.94173
0.193992
0.274795
0.94173
0.193992
0.274795
0.94173
0.328157
-0.200988
0.922993
0.328157
-0.200988
0.922993
0.328157
-0.200988
0.922993
0.13105
0.597186
0.791325
0.13105
0.597186
0.791325
0.13105
0.597186
0.791325
-0.217596
0.611985
0.760346
-0.217596
0.611985
0.760346
-0.217596
0.611985
0.760346
-0.291148
-0.204904
0.934477
-0.291148
-0.204904
0.934477
-0.291148
-0.204904
0.934477
-0.246103
0.457303
0.85458
-0.246103
0.457303
0.85458
-0.246103
0.457303
0.85458
-0.187607
0.611474
0.768702
-0.187607
0.611474
0.768702
-0.187607
0.611474
0.768702
-0.195239
0.15951
0.967697
-0.195239
0.15951
0.967697
-0.195239
0.15951
0.967697
-0.172684
-0.079444
0.981768
-0.172684
-0.079444
0.981768
-0.172684
-0.079444
0.981768
-0.121683
-0.579337
0.805954
-0.121683
-0.579337
0.805954
-0.121683
-0.579337
0.805954
-0.110168
0.690555
0.714841
-0.110168
0.690555
0.714841
-0.110168
0.690555
0.714841
-0.262217
-0.850736
0.455512
-0.262217
-0.850736
0.455512
-0.262217
-0.850736
0.455512
-0.497163
0.339062
0.798665
-0.497163
0.339062
0.798665
-0.497163
0.339062
0.798665
-0.478921
0.593367
0.646955
-0.478921
0.593367
0.646955
-0.478921
0.593367
0.646955
-0.596541
0.025256
0.802185
-0.596541
0.025256
0.802185
-0.596541
0.025256
0.802185
-0.442205
-0.861892
0.248186
-0.442205
-0.861892
0.248186
-0.442205
-0.861892
0.248186
-0.791506
0.427213
0.437044
-0.791506
0.427213
0.437044
-0.791506
0.427213
0.437044
-0.802036
-0.278524
0.528359
-0.802036
-0.278524
0.528359
-0.802036
-0.278524
0.528359
-0.78898
0.309827
0.530582
-0.78898
0.309827
0.530582
-0.78898
0.309827
0.530582
-0.701918
0.58693
0.403514
-0.701918
0.58693
0.403514
-0.701918
0.58693
0.403514
-0.855567
0.178098
0.486093
-0.855567
0.178098
0.486093
-0.855567
0.178098
0.486093
-0.839768
-0.08684
0.535956
-0.839768
-0.08684
0.535956
-0.839768
-0.08684
0.535956
-0.70899
-0.529201
0.466132
-0.70899
-0.529201
0.466132
-0.70899
-0.529201
0.466132
-0.045951
-0.998885
0.01086
-0.045951
-0.998885
0.01086
-0.045951
-0.998885
0.01086
-0.80915
0.584166
0.063456
-0.80915
0.584166
0.063456
-0.80915
0.584166
0.063456
-0.871889
-0.192195
-0.450412
-0.871889
-0.192195
-0.450412
-0.871889
-0.192195
-0.450412
-0.701221
0.630633
-0.332552
-0.701221
0.630633
-0.332552
-0.701221
0.630633
-0.332552
-0.373642
0.857679
-0.35324
-0.373642
0.857679
-0.35324
-0.373642
0.857679
-0.35324
-0.286641
-0.458517
-0.841189
-0.286641
-0.458517
-0.841189
-0.286641
-0.458517
-0.841189
-0.252873
0.111966
-0.960999
-0.252873
0.111966
-0.960999
-0.252873
0.111966
-0.960999
0.750916
-0.41711
-0.512
0.750916
-0.41711
-0.512
0.750916
-0.41711
-0.512
0.763804
0.270995
-0.585802
0.763804
0.270995
-0.585802
0.763804
0.270995
-0.585802
0.571628
0.673259
-0.469003
0.571628
0.673259
-0.469003
0.571628
0.673259
-0.469003
0.988196
0.076227
0.132881
0.988196
0.076227
0.132881
0.988196
0.076227
0.132881
0.712473
-0.492476
0.499849
0.712473
-0.492476
0.499849
0.712473
-0.492476
0.499849
0.521043
-0.095664
0.848152
0.521043
-0.095664
0.848152
0.521043
-0.095664
0.848152
0.197137
0.635016
0.746922
0.197137
0.635016
0.746922
0.197137
0.635016
0.746922
-0.490257
-0.330734
0.806389
-0.490257
-0.330734
0.806389
-0.490257
-0.330734
0.806389
-0.442503
0.007243
0.896738
-0.442503
0.007243
0.896738
-0.442503
0.007243
0.896738
-0.250091
0.815304
0.522239
-0.250091
0.815304
0.522239
-0.250091
0.815304
0.522239
-0.884346
0.374579
0.278608
-0.884346
0.374579
0.278608
-0.884346
0.374579
0.278608
-0.50367
-0.858686
-0.094738
-0.50367
-0.858686
-0.094738
-0.50367
-0.858686
-0.094738
-0.984266
-0.175039
-0.024106
-0.984266
-0.175039
-0.024106
-0.984266
-0.175039
-0.024106
-0.936789
0.306957
-0.167941
-0.936789
0.306957
-0.167941
-0.936789
0.306957
-0.167941
-0.873567
0.461687
-0.154031
-0.873567
0.461687
-0.154031
-0.873567
0.461687
-0.154031
-0.842421
-0.533989
-0.071993
-0.842421
-0.533989
-0.071993
-0.842421
-0.533989
-0.071993
-0.590809
0.805908
-0.038178
-0.590809
0.805908
-0.038178
-0.590809
0.805908
-0.038178
-0.242298
-0.908364
-0.340831
-0.242298
-0.908364
-0.340831
-0.242298
-0.908364
-0.340831
-0.569044
0.190695
-0.799891
-0.569044
0.190695
-0.799891
-0.569044
0.190695
-0.799891
-0.536938
0.606959
-0.585917
-0.536938
0.606959
-0.585917
-0.536938
0.606959
-0.585917
-0.662583
0.062588
-0.746369
-0.662583
0.062588
-0.746369
-0.662583
0.062588
-0.746369
-0.413464
-0.508409
-0.75536
-0.413464
-0.508409
-0.75536
-0.413464
-0.508409
-0.75536
-0.058607
-0.962114
-0.266275
-0.058607
-0.962114
-0.266275
-0.058607
-0.962114
-0.266275
-0.239406
0.545679
-0.803069
-0.239406
0.545679
-0.803069
-0.239406
0.545679
-0.803069
-0.249481
0.464452
-0.849731
-0.249481
0.464452
-0.849731
-0.249481
0.464452
-0.849731
0.03827
-0.906448
-0.420579
0.03827
-0.906448
-0.420579
0.03827
-0.906448
-0.420579
0.048097
0.321831
-0.945575
0.048097
0.321831
-0.945575
0.048097
0.321831
-0.945575
0.031191
0.585937
-0.809756
0.031191
0.585937
-0.809756
0.031191
0.585937
-0.809756
0.343205
0.318309
-0.88368
0.343205
0.318309
-0.88368
0.343205
0.318309
-0.88368
0.321808
0.44586
-0.835254
0.321808
0.44586
-0.835254
0.321808
0.44586
-0.835254
0.444516
-0.509724
-0.736605
0.444516
-0.509724
-0.736605
0.444516
-0.509724
-0.736605
0.412667
0.49052
-0.767526
0.412667
0.49052
-0.767526
0.412667
0.49052
-0.767526
0.669795
0.512862
-0.536979
0.669795
0.512862
-0.536979
0.669795
0.512862
-0.536979
0.751842
0.42351
-0.505344
0.751842
0.42351
-0.505344
0.751842
0.42351
-0.505344
0.773557
0.443164
-0.453006
0.773557
0.443164
-0.453006
0.773557
0.443164
-0.453006
0.283785
-0.949058
-0.136947
0.283785
-0.949058
-0.136947
0.283785
-0.949058
-0.136947
0.939917
-0.333528
-0.072908
0.939917
-0.333528
-0.072908
0.939917
-0.333528
-0.072908
0.987615
0.040306
-0.151633
0.987615
0.040306
-0.151633
0.987615
0.040306
-0.151633
0.734172
0.664846
-0.137735
0.734172
0.664846
-0.137735
0.734172
0.664846
-0.137735
0.051045
-0.998647
-0.009947
0.051045
-0.998647
-0.009947
0.051045
-0.998647
-0.009947
0.989672
-0.099107
0.10357
0.989672
-0.099107
0.10357
0.989672
-0.099107
0.10357
0.926374
0.318737
0.200594
0.926374
0.318737
0.200594
0.926374
0.318737
0.200594
0.916117
0.348872
0.197529
0.916117
0.348872
0.197529
0.916117
0.348872
0.197529
0.402715
-0.870032
0.284368
0.402715
-0.870032
0.284368
0.402715
-0.870032
0.284368
0.766229
0.397577
0.504802
0.766229
0.397577
0.504802
0.766229
0.397577
0.504802
0.781482
-0.32899
0.530143
0.781482
-0.32899
0.530143
0.781482
-0.32899
0.530143
0.687278
0.560678
0.461833
0.687278
0.560678
0.461833
0.687278
0.560678
0.461833
0.709744
0.607459
0.356732
0.709744
0.607459
0.356732
0.709744
0.607459
0.356732
0.862249
0.161654
0.479994
0.862249
0.161654
0.479994
0.862249
0.161654
0.479994
0.712136
-0.46992
0.521572
0.712136
-0.46992
0.521572
0.712136
-0.46992
0.521572
0.557313
0.714588
0.422807
0.557313
0.714588
0.422807
0.557313
0.714588
0.422807
0.429423
0.414665
0.802278
0.429423
0.414665
0.802278
0.429423
0.414665
0.802278
0.455447
0.227417
0.860726
0.455447
0.227417
0.860726
0.455447
0.227417
0.860726
0.263958
0.452354
0.851882
0.263958
0.452354
0.851882
0.263958
0.452354
0.851882
0.253335
0.512774
0.820295
0.253335
0.512774
0.820295
0.253335
0.512774
0.820295
0.151247
0.001707
0.988495
0.151247
0.001707
0.988495
0.151247
0.001707
0.988495
-0.170801
0.306529
0.936412
-0.170801
0.306529
0.936412
-0.170801
0.306529
0.936412
-0.14288
0.52188
0.840968
-0.14288
0.52188
0.840968
-0.14288
0.52188
0.840968
-0.050873
-0.451004
0.891071
-0.050873
-0.451004
0.891071
-0.050873
-0.451004
0.891071
-0.039124
0.607372
0.793454
-0.039124
0.607372
0.793454
-0.039124
0.607372
0.793454
-0.286726
-0.926604
0.243298
-0.286726
-0.926604
0.243298
-0.286726
-0.926604
0.243298
-0.702319
0.531402
0.473667
-0.702319
0.531402
0.473667
-0.702319
0.531402
0.473667
-0.790257
-0.193092
0.581557
-0.790257
-0.193092
0.581557
-0.790257
-0.193092
0.581557
-0.735762
0.432219
0.521384
-0.735762
0.432219
0.521384
-0.735762
0.432219
0.521384
-0.721459
0.498033
0.481104
-0.721459
0.498033
0.481104
-0.721459
0.498033
0.481104
-0.752064
-0.471131
0.460908
-0.752064
-0.471131
0.460908
-0.752064
-0.471131
0.460908
-0.649603
0.565265
0.508421
-0.649603
0.565265
0.508421
-0.649603
0.565265
0.508421
-0.995328
-0.01169
0.095836
-0.995328
-0.01169
0.095836
-0.995328
-0.01169
0.095836
-0.942426
0.318037
-0.103371
-0.942426
0.318037
-0.103371
-0.942426
0.318037
-0.103371
-0.964037
0.178684
-0.196737
-0.964037
0.178684
-0.196737
-0.964037
0.178684
-0.196737
-0.969412
-0.057797
-0.238539
-0.969412
-0.057797
-0.238539
-0.969412
-0.057797
-0.238539
-0.758659
-0.200421
-0.619893
-0.758659
-0.200421
-0.619893
-0.758659
-0.200421
-0.619893
-0.393979
0.59829
-0.697732
-0.393979
0.59829
-0.697732
-0.393979
0.59829
-0.697732
-0.449347
0.151294
-0.880453
-0.449347
0.151294
-0.880453
-0.449347
0.151294
-0.880453
-0.449568
-0.085893
-0.889107
-0.449568
-0.085893
-0.889107
-0.449568
-0.085893
-0.889107
-0.25425
-0.224147
-0.940805
-0.25425
-0.224147
-0.940805
-0.25425
-0.224147
-0.940805
0.279974
-0.217013
-0.935158
0.279974
-0.217013
-0.935158
0.279974
-0.217013
-0.935158
0.5035
0.165094
-0.848075
0.5035
0.165094
-0.848075
0.5035
0.165094
-0.848075
0.500094
-0.085961
-0.861694
0.500094
-0.085961
-0.861694
0.500094
-0.085961
-0.861694
0.793094
-0.125248
-0.596083
0.793094
-0.125248
-0.596083
0.793094
-0.125248
-0.596083
0.875948
0.461739
-0.139686
0.875948
0.461739
-0.139686
0.875948
0.461739
-0.139686
0.972333
0.232314
-0.024487
0.972333
0.232314
-0.024487
0.972333
0.232314
-0.024487
0.98845
-0.083655
-0.126364
0.98845
-0.083655
-0.126364
0.98845
-0.083655
-0.126364
0.781434
-0.61729
-0.091176
0.781434
-0.61729
-0.091176
0.781434
-0.61729
-0.091176
0.56129
-0.07128
0.824544
0.56129
-0.07128
0.824544
0.56129
-0.07128
0.824544
0.081077
-0.912261
0.401506
0.081077
-0.912261
0.401506
0.081077
-0.912261
0.401506
0.205135
-0.37163
0.905434
0.205135
-0.37163
0.905434
0.205135
-0.37163
0.905434
-0.244989
-0.272523
0.930436
-0.244989
-0.272523
0.930436
-0.244989
-0.272523
0.930436
-0.17762
0.151924
0.972302
-0.17762
0.151924
0.972302
-0.17762
0.151924
0.972302
-0.178725
-0.07648
0.980922
-0.178725
-0.07648
0.980922
-0.178725
-0.07648
0.980922
-0.82871
0.154364
0.537969
-0.82871
0.154364
0.537969
-0.82871
0.154364
0.537969
-0.828533
-0.076487
0.554692
-0.828533
-0.076487
0.554692
-0.828533
-0.076487
0.554692
1200
0.156537
0.086392
0.223105
0.075097
0.185266
0.014688
0.087144
0.086826
0.154669
0.084471
0.119334
0.018211
-0.037458
0.122629
0.024474
0.191415
0.019101
-0.074571
0.095408
0.165644
0.162861
0.13692
0.087183
0.091844
0.036379
0.15861
0.089824
0.184501
0.087135
0.076374
0.155316
0.196707
0.229928
0.19359
0.161847
0.129091
0.096518
0.168899
0.151847
0.190688
0.162886
0.137547
0.09102
0.252882
0.16012
0.250871
0.152524
0.190171
0.001867
0.296098
0.088761
0.266847
0.034917
0.186697
0.158658
0.25
0.227851
0.278741
0.230793
0.218622
0.154494
0.317676
0.225308
0.289383
0.162161
0.249581
0.097685
0.33932
0.154411
0.316337
0.091307
0.256505
0.027038
0.334414
0.090822
0.35302
0.091288
0.242032
0.16586
0.407676
0.223375
0.364815
0.15665
0.312747
0.092577
0.424798
0.163426
0.405944
0.097558
0.34548
0.048599
0.505699
0.139607
0.494885
0.092587
0.425972
0.139963
0.491312
0.192769
0.562254
0.225263
0.476882
0.11922
0.562293
0.181933
0.55107
0.14189
0.490555
0.232022
0.075166
0.163225
0.137512
0.23202
0.198518
0.232005
0.373472
0.158987
0.400779
0.227327
0.466094
0.229881
0.464117
0.185826
0.586496
0.24387
0.614473
0.834193
0.09153
0.88558
0.109748
0.875227
-0.027991
0.824079
0.087841
0.819795
-0.032185
0.772861
-0.026836
0.674515
0.063627
0.761119
0.060322
0.763829
-0.02818
0.602432
0.056482
0.66836
0.064142
0.664304
-0.04766
0.455492
0.087621
0.511265
0.095735
0.453299
-0.022739
0.466778
0.099263
0.466764
-0.032632
0.422419
0.090715
0.418986
0.091219
0.418455
-0.030172
0.367606
-0.035844
0.312022
0.089045
0.366496
0.085933
0.367881
-0.022028
0.226846
0.109754
0.2992
0.088066
0.293611
-0.046258
0.774081
0.147784
0.829477
0.081148
0.776364
0.062573
0.765894
0.143785
0.761179
0.060675
0.674158
0.060476
0.602896
0.069056
0.666263
0.156881
0.668488
0.060314
0.534304
0.230704
0.576975
0.20392
0.532185
0.091864
0.511484
0.086631
0.453991
0.090762
0.441261
0.234541
0.466029
0.26675
0.466701
0.082975
0.422432
0.099422
0.418994
0.094802
0.367831
0.08528
0.367653
0.255862
0.324474
0.260006
0.371648
0.24506
0.368032
0.09666
0.238624
0.149471
0.29298
0.246148
0.29595
0.081777
0.761012
0.240649
0.767313
0.150422
0.672841
0.244902
0.773039
0.335267
0.825015
0.305745
0.776051
0.244881
0.761015
0.244872
0.67213
0.245085
0.767176
0.33471
0.600996
0.297381
0.666228
0.336395
0.666998
0.243823
0.53415
0.23225
0.576396
0.303235
0.577149
0.203061
0.231207
0.343801
0.307119
0.236026
0.220937
0.193423
0.842807
0.410474
0.868808
0.323466
0.832407
0.302709
0.779007
0.33725
0.818656
0.408839
0.825266
0.303603
0.597699
0.400612
0.671566
0.330155
0.600932
0.308828
0.534515
0.364045
0.576474
0.405456
0.576395
0.302659
0.451439
0.400692
0.522027
0.365229
0.444071
0.255723
0.466137
0.228909
0.421866
0.253873
0.466721
0.405273
0.418956
0.394993
0.418481
0.251202
0.36758
0.237692
0.316851
0.407832
0.369819
0.392338
0.322831
0.231339
0.765959
0.341399
0.681743
0.332063
0.675186
0.447032
0.53375
0.45134
0.576858
0.405724
0.534515
0.364232
0.23657
0.502356
0.291558
0.39645
0.246944
0.366859
0.839978
0.51878
0.874566
0.511445
0.833434
0.402332
0.824383
0.404867
0.776404
0.425031
0.772958
0.512478
0.599643
0.517271
0.670201
0.438852
0.600359
0.4147
0.466937
0.393336
0.422388
0.399776
0.467023
0.518336
0.418884
0.399421
0.36774
0.402389
0.415603
0.550254
0.371973
0.527095
0.365899
0.405426
0.310071
0.399852
0.243791
0.501342
0.285254
0.53638
0.288627
0.382322
0.91124
0.63692
1.105618
0.357546
0.960003
0.312267
0.604084
0.520312
0.668357
0.549785
0.663028
0.438927
0.835358
0.646178
0.881379
0.63155
0.875541
0.517292
0.77409
0.633295
0.823357
0.64331
0.773892
0.523763
0.683312
0.639909
0.765894
0.629299
0.674153
0.546117
0.598067
0.626089
0.666213
0.641773
0.668502
0.545973
0.533106
0.579494
0.575445
0.639346
0.578198
0.520246
0.231988
0.640577
0.293267
0.665429
0.296584
0.514208
0.534079
0.696424
0.575439
0.6393
0.532827
0.579462
0.451983
0.690661
0.512829
0.697581
0.51424
0.575598
0.422347
0.698289
0.466707
0.709485
0.420345
0.562847
0.4156
0.555649
0.367956
0.540076
0.367745
0.697264
0.303974
0.661518
0.366964
0.692611
0.375647
0.551022
0.888776
0.795701
1.09774
0.75122
0.889029
0.626107
0.883355
0.770436
0.88358
0.634509
0.835263
0.628787
0.776053
0.726181
0.819515
0.764625
0.8236
0.631727
0.761012
0.726188
0.767348
0.635936
0.67213
0.725993
0.598197
0.763697
0.666997
0.727255
0.598525
0.651131
0.773019
0.82076
0.827621
0.762387
0.776051
0.73042
0.761015
0.730411
0.672841
0.726176
0.767148
0.820216
0.603148
0.766486
0.667084
0.821194
0.666753
0.723477
0.455794
0.819441
0.510333
0.826079
0.452331
0.705754
0.467042
0.831703
0.466702
0.695432
0.422355
0.706744
0.418938
0.701823
0.367853
0.692576
0.419547
0.819221
0.311717
0.819323
0.366796
0.818756
0.369129
0.704144
0.231289
0.82263
0.299724
0.820071
0.230316
0.697302
0.833676
0.85442
0.873298
0.788784
0.837005
0.760294
0.779
0.822776
0.824196
0.853876
0.822123
0.762529
0.598383
0.8811
0.67189
0.813869
0.600479
0.77793
0.532155
0.821724
0.576834
0.886523
0.576975
0.767158
0.839034
0.940857
0.87471
0.936889
0.832415
0.852235
0.773757
0.932915
0.820431
0.93992
0.825085
0.852944
0.676646
0.932661
0.762493
0.936539
0.765989
0.8269
0.533743
0.936843
0.576857
0.88669
0.531864
0.821945
0.454727
0.939826
0.51359
0.940697
0.456477
0.826943
0.467083
0.810546
0.422745
0.822059
0.466754
0.94427
0.418523
0.936947
0.41953
0.819602
0.367604
0.941154
0.312539
0.937259
0.367289
0.93083
0.31576
0.804403
0.865226
0.936221
0.927794
1.094361
0.942007
0.78822
0.594295
1.02817
0.671694
0.923393
0.599891
0.897026
0.15533
0.084177
0.184314
0.016218
0.120491
0.018676
0.08506
0.088627
0.11941
0.016649
0.044551
-0.003535
0.025564
0.179734
0.089391
0.117704
0.023487
-0.079277
0.162227
0.146099
0.224951
0.083376
0.156877
0.079389
0.162861
0.13692
0.154563
0.08436
0.087183
0.091844
0.161549
0.254762
0.226208
0.205129
0.153476
0.190839
0.09102
0.252882
0.152524
0.190171
0.094982
0.172434
0.090714
0.267156
0.09034
0.161112
0.03605
0.180802
0.154411
0.316337
0.160094
0.253102
0.091307
0.256505
0.227848
0.354663
0.228266
0.294829
0.152532
0.315776
0.163425
0.403404
0.153976
0.316465
0.099039
0.343369
0.090782
0.430166
0.094791
0.338646
0.033308
0.369089
0.142899
0.497561
0.223756
0.463739
0.166877
0.402417
0.141629
0.4937
0.161832
0.404672
0.093382
0.429162
0.045165
0.541515
0.090766
0.426217
0.015905
0.369651
0.118613
0.56425
0.140062
0.491499
0.054194
0.519908
0.834193
0.09153
0.875227
-0.027991
0.83999
-0.033324
0.674515
0.063627
0.763829
-0.02818
0.684448
-0.044004
0.53161
0.09045
0.575995
0.066484
0.533681
-0.032619
0.511265
0.095735
0.5102
-0.03409
0.453299
-0.022739
0.312022
0.089045
0.367881
-0.022028
0.315367
-0.036226
0.239097
0.110374
0.284193
-0.054804
0.229078
-0.080826
0.836957
0.210914
0.874592
0.118339
0.839025
0.080253
0.822176
0.208801
0.821217
0.082489
0.779057
0.147895
0.600479
0.193148
0.671968
0.155813
0.595831
0.072832
0.576975
0.20392
0.574886
0.064625
0.532185
0.091864
0.324474
0.260006
0.368032
0.09666
0.31692
0.079311
0.893925
0.30839
0.892358
0.115776
0.828341
0.209819
0.776053
0.240643
0.827728
0.208903
0.772994
0.149881
0.666753
0.247601
0.667086
0.149274
0.603148
0.204591
0.832673
0.307832
0.873142
0.307107
0.84039
0.20529
0.825015
0.305745
0.819654
0.206525
0.776051
0.244881
0.600996
0.297381
0.666998
0.243823
0.598198
0.207381
0.534515
0.364045
0.576395
0.302659
0.53304
0.23517
0.522027
0.365229
0.492672
0.232804
0.444071
0.255723
0.369819
0.392338
0.369594
0.249551
0.322831
0.231339
0.293943
0.406753
0.293456
0.242917
0.23869
0.344843
0.776368
0.422953
0.82827
0.411393
0.773945
0.337363
0.666999
0.447422
0.666365
0.328502
0.602872
0.403993
0.513594
0.455212
0.522017
0.364159
0.464427
0.400591
0.874566
0.511445
0.906738
0.326754
0.833434
0.402332
0.764011
0.513874
0.761132
0.425202
0.669269
0.443088
0.578339
0.521427
0.576797
0.405324
0.533952
0.451828
0.454539
0.510842
0.525826
0.452698
0.456345
0.402889
0.913302
0.632805
0.96986
0.317384
0.865249
0.51808
0.674531
0.549268
0.755538
0.518341
0.681409
0.442841
0.532367
0.578084
0.578468
0.521467
0.533689
0.452952
0.512731
0.58047
0.510231
0.451483
0.465497
0.514738
0.835358
0.646178
0.875541
0.517292
0.839013
0.515842
0.823357
0.64331
0.820418
0.516791
0.773892
0.523763
0.765894
0.629299
0.762506
0.520115
0.674153
0.546117
0.598067
0.626089
0.668502
0.545973
0.600932
0.524079
0.458551
0.607644
0.527065
0.581195
0.455219
0.517057
0.467124
0.615515
0.467017
0.512497
0.420774
0.552847
0.3197
0.669118
0.361759
0.544163
0.311211
0.519423
0.242623
0.65233
0.28669
0.499281
0.243359
0.515986
0.451983
0.690661
0.51424
0.575598
0.460362
0.611317
0.466707
0.709485
0.467172
0.611081
0.420345
0.562847
0.776053
0.726181
0.8236
0.631727
0.772993
0.635384
0.666997
0.727255
0.66668
0.635859
0.598525
0.651131
0.577149
0.768016
0.575321
0.639312
0.534318
0.697114
0.531471
0.820497
0.577179
0.768517
0.534083
0.698034
0.510333
0.826079
0.512009
0.696748
0.452331
0.705754
0.311717
0.819323
0.369129
0.704144
0.32742
0.655014
0.299724
0.820071
0.287956
0.655855
0.230316
0.697302
0.87471
0.936889
0.89182
0.780782
0.832415
0.852235
0.773757
0.932915
0.825085
0.852944
0.77394
0.822871
0.676646
0.932661
0.765989
0.8269
0.683493
0.81552
0.668499
0.931734
0.666153
0.813682
0.6028
0.885329
0.51359
0.940697
0.512031
0.819214
0.456477
0.826943
0.367289
0.93083
0.366181
0.821824
0.31576
0.804403
0.295912
0.942369
0.296675
0.808965
0.236142
0.853949
0.576573
1.035532
0.576655
0.886509
0.533945
0.93733
0.776402
0.060494
0.824079
0.087841
0.772861
-0.026836
0.466764
-0.032632
0.422054
-0.022911
0.422419
0.090715
0.367779
0.089471
0.418986
0.091219
0.367606
-0.035844
0.683558
0.154995
0.765894
0.143785
0.674158
0.060476
0.504656
0.236262
0.511484
0.086631
0.441261
0.234541
0.421749
0.243131
0.466029
0.26675
0.422432
0.099422
0.418547
0.24495
0.418994
0.094802
0.367653
0.255862
0.767313
0.150422
0.682111
0.149278
0.672841
0.244902
0.67213
0.245085
0.681362
0.338119
0.767176
0.33471
0.421866
0.253873
0.422325
0.389513
0.466721
0.405273
0.367898
0.405496
0.418956
0.394993
0.36758
0.237692
0.761187
0.424849
0.765959
0.341399
0.675186
0.447032
0.819742
0.517793
0.824383
0.404867
0.772958
0.512478
0.422388
0.399776
0.420211
0.53702
0.467023
0.518336
0.36774
0.402389
0.367819
0.54821
0.415603
0.550254
0.314306
0.52266
0.371973
0.527095
0.310071
0.399852
0.418886
0.699027
0.4156
0.555649
0.367745
0.697264
0.84078
0.765892
0.883355
0.770436
0.835263
0.628787
0.767348
0.635936
0.682261
0.634181
0.67213
0.725993
0.672841
0.726176
0.681678
0.821175
0.767148
0.820216
0.422737
0.81741
0.467042
0.831703
0.422355
0.706744
0.367853
0.692576
0.367693
0.825476
0.419547
0.819221
0.422745
0.822059
0.422064
0.932393
0.466754
0.94427
0.41953
0.819602
0.367665
0.816725
0.367604
0.941154
